IT:NA:CPP:2015:1336065451
IT:BO:TRB:2017:1903823101
IT:VE:TRB:2014:816907641
IT:RM:TRB:2016:574028517
IT:BO:TRB:2015:1401040644
IT:TO:TRB:2014:1316241869
IT:MI:TRB:2015:1075350910
IT:MI:TRB:2015:2090518226
IT:MI:CPP:2014:449435409
IT:RM:TRB:2016:758458372
IT:VE:CPP:2014:2123196221
IT:PA:TRB:2017:1169975124
IT:CB:CPP:2014:658915674
IT:GE:TRB:2017:907964691
IT:MI:TRB:2017:2070560149
IT:BO:TRB:2016:1746230869
IT:MI:TMN:2016:1148877288
IT:RM:TRB:2017:34406096
IT:NA:TRB:2014:758621108
IT:GE:TRB:2016:502163366
IT:TS:TRB:2017:360490900
IT:BO:CPP:2017:1197384746
IT:RM:TRB:2015:324460270
IT:CA:TRB:2015:1249003411
IT:MI:TRB:2015:954970634
IT:NA:TRB:2014:1661451196
IT:MI:TRB:2016:1486075822
IT:MI:CPP:2016:328325381
IT:FI:TRB:2015:759340705
IT:MI:TRB:2015:1995036013
IT:MI:TRB:2015:22885121
IT:MI:TRB:2016:868385925
IT:CA:TRB:2015:943833273
IT:MI:CPP:2017:1802273213
IT:NA:TRB:2015:1259078943
IT:RC:TRB:2018:1046505166
IT:MI:TRB:2017:1388344182
IT:MI:TRB:2017:189774802
IT:TS:CPP:2016:52766445
IT:BO:TRB:2014:1583093540
IT:VE:TRB:2014:638678969
IT:PA:TRB:2016:2014350633
IT:RM:TRB:2017:640141356
IT:MI:TRB:2015:224015624
IT:MI:TRB:2014:1556652496
IT:MI:TRB:2016:1101776057
IT:FI:TRB:2014:1308277152
IT:RM:TRB:2016:239553121
IT:CA:TRB:2015:2012232133
IT:FI:TRB:2014:466165435
IT:MI:TRB:2018:579644672
IT:MI:TRB:2017:879317584
IT:MI:TRB:2017:36781561
IT:MI:TRB:2018:2044870059
IT:CL:TRB:2016:2095461286
IT:VE:TRB:2017:881078407
IT:NA:TRB:2016:1747877424
IT:NA:TRB:2014:540444564
IT:MI:TRB:2018:938935184
IT:FI:CPP:2018:980654377
IT:AQ:TRB:2017:831241797
IT:FI:TRB:2015:186408925
IT:FI:TRB:2015:1359209989
IT:MI:CPP:2015:1661548773
IT:VE:TRB:2018:747163024
IT:MI:TRB:2016:2015677133
IT:VE:TRB:2014:930990515
IT:RM:TRB:2017:209328997
IT:CA:TRB:2017:1386921972
IT:FI:TRB:2018:1681241150
IT:MI:TRB:2017:1215174780
IT:MI:TRB:2014:1763452682
IT:MI:TRB:2017:2141707081
IT:RM:CPP:2018:1784557081
IT:NA:TRB:2015:1163245574
IT:VE:TRB:2018:966424367
IT:BS:CPP:2015:1099304771
IT:MI:TRB:2015:1016602035
IT:TO:TRB:2017:1685829725
IT:VE:TRB:2014:1958633078
IT:MI:TRB:2017:1390870330
IT:BO:TRB:2014:1921513728
IT:MI:TRB:2014:250616898
IT:GE:TRB:2016:1804748353
IT:RM:TRB:2016:1428360849
IT:VE:TRB:2015:1127182943
IT:BO:TRB:2014:822623525
IT:BO:TRB:2017:702440664
IT:BO:TRB:2015:197860815
IT:VE:TRB:2018:1523084118
IT:FI:TRB:2014:338565489
IT:TS:TRB:2018:1066768308
IT:VE:TRB:2017:1824854786
IT:BO:TRB:2015:203011931
IT:RM:TRB:2015:715359503
IT:NA:TRB:2018:755610378
IT:MI:TRB:2016:1990140465
IT:MI:TRB:2018:496269093
IT:NA:TRB:2018:521262268
IT:BA:TRB:2018:504035051
IT:TN:TRB:2017:528204181
IT:VE:CPP:2017:1152203715
IT:VE:TRB:2017:1741627571
IT:GE:TRB:2017:1651040069
IT:RM:CPP:2014:339065725
IT:FI:TRB:2017:2119055081
IT:TS:TRB:2016:2018946812
IT:MI:CPP:2015:887346372
IT:VE:TRB:2016:411656230
IT:BO:TRB:2017:1646307867
IT:RC:TRB:2017:1866634613
IT:TS:TRB:2018:1745326086
IT:GE:TRB:2016:294670560
IT:MI:TRB:2016:1375456163
IT:MI:TRB:2015:1635015460
IT:FI:TRB:2015:67658346
IT:RM:TRB:2014:167523083
IT:FI:TRB:2017:2104073793
IT:MI:CPP:2015:931020843
IT:MI:TRB:2016:1995402075
IT:MI:TRB:2014:1488413298
IT:MI:TRB:2017:940200016
IT:FI:TRB:2017:1070628522
IT:TO:TRB:2016:1988268548
IT:PZ:TRB:2017:971306073
IT:BO:TRB:2014:2031850204
IT:MI:TRB:2014:494809293
IT:BO:TRB:2015:1770659566
IT:CA:CPP:2014:1262717817
IT:VE:TRB:2015:245912067
IT:MI:TRB:2016:1833446634
IT:NA:TRB:2017:1314513813
IT:RM:TRB:2017:115012232
IT:MI:TRB:2016:947516614
IT:NA:TRB:2015:2024109175
IT:CA:TRB:2014:981366464
IT:LE:CSS:2017:1196415241
IT:MI:TRB:2016:212234986
IT:CA:TRB:2015:933243802
IT:MI:CPP:2016:1304479690
IT:RM:TRB:2015:1352468627
IT:BA:CPP:2018:1991167376
IT:BO:TRB:2015:1223865252
IT:MI:CPP:2016:1316531315
IT:FI:TRB:2018:1321545803
IT:NA:TRB:2015:659603097
IT:VE:TRB:2018:1295848678
IT:BS:CPP:2016:1399064144
IT:RM:CPP:2016:1239469419
IT:NA:CPP:2016:1062837593
IT:GE:TRB:2018:1381512556
IT:MI:TRB:2016:318593050
IT:RM:TRB:2016:1481519887
IT:VE:CPP:2014:1062799271
IT:MI:CPP:2016:173369741
IT:BO:TRB:2014:1661803325
IT:FI:CPP:2015:449535695
IT:MI:CPP:2014:1941199170
IT:VE:TRB:2015:1694660557
IT:NA:CPP:2016:288765013
IT:RC:TRB:2017:1773069801
IT:CT:CPP:2018:1906933741
IT:MI:TRB:2017:678490281
IT:MI:TRB:2017:228618777
IT:CA:CPP:2016:1554265310
IT:NA:TRB:2018:788365559
IT:RM:TRB:2015:1083721620
IT:TN:TRB:2016:388391480
IT:AN:TRB:2015:694506736
IT:BA:TRB:2014:1713450885
IT:MI:TRB:2017:1607090116
IT:MI:TRB:2016:1300226765
IT:FI:TRB:2015:967451339
IT:MI:TRB:2014:822173985
IT:TO:TRB:2016:2084238350
IT:BO:TRB:2015:732596023
IT:VE:TRB:2017:1413902791
IT:RM:TRB:2015:1447556391
IT:MI:TRB:2015:1416526422
IT:AN:CPP:2014:2059115474
IT:MI:TRB:2014:1464947055
IT:BO:TRB:2015:1783026267
IT:RM:TRB:2014:60732184
IT:BO:TRB:2017:740205573
IT:VE:TRB:2016:1598105334
IT:BO:TRB:2014:1902673837
IT:AQ:TRB:2016:1034932101
IT:AQ:CPP:2014:1848737331
IT:PA:CPP:2016:4800175
IT:BA:TRB:2016:1934604591
IT:TO:TRB:2017:1229286118
IT:BO:TRB:2017:1247810275
IT:RM:TRB:2018:577433730
IT:RM:TRB:2017:76265654
IT:RM:TRB:2018:803213841
IT:GE:TRB:2014:690084107
IT:NA:CPP:2018:1709095122
IT:VE:TRB:2016:1790625361
IT:RM:CPP:2016:1239014307
IT:CA:CPP:2015:1158620271
IT:CT:TRB:2018:1856269269
IT:NA:TRB:2016:1593194604
IT:RM:TRB:2018:727583353
IT:SS:CPP:2015:462540847
IT:RM:TRB:2015:1485611326
IT:MI:TRB:2016:1400669399
IT:NA:TRB:2017:1588086110
IT:MI:TRB:2016:65148177
IT:FI:CPP:2015:850315737
IT:TS:CPP:2017:502164029
IT:RM:TRB:2017:49236237
IT:BO:TRB:2015:573019437
IT:BO:TRB:2017:1085641334
IT:TO:TRB:2018:145511542
IT:NA:TRB:2016:859172307
IT:VE:TRB:2015:1520991331
IT:TO:TRB:2016:1189112242
IT:MI:CPP:2015:1977896568
IT:VE:TRB:2017:2146768344
IT:MI:TRB:2016:1368683901
IT:TO:TRB:2014:1897365411
IT:RM:TRB:2014:1824987847
IT:CA:CPP:2015:1658767017
IT:MI:CPP:2016:1246183519
IT:BO:TRB:2014:1808757545
IT:MI:TRB:2016:682108129
IT:MI:TRB:2014:397420706
IT:MI:TRB:2016:1013462763
IT:BA:TRB:2014:1020778310
IT:CA:CPP:2014:1041811272
IT:MI:GPC:2017:1557960577
IT:RM:TRB:2014:572578644
IT:NA:CPP:2017:406765744
IT:BO:TRB:2014:1225397984
IT:BS:TRB:2018:1753312051
IT:RM:TRB:2016:126805959
IT:BO:TRB:2014:1708177432
IT:MI:CPP:2017:1350576933
IT:FI:TRB:2016:1183902113
IT:BO:TRB:2017:1497075049
IT:MI:TRB:2015:975834191
IT:BZ:TRB:2016:33258647
IT:MI:CPP:2017:1832012311
IT:RM:TMN:2014:1024568891
IT:MI:TRB:2015:704963977
IT:BO:TRB:2017:475679399
IT:RM:TRB:2014:1215091663
IT:MI:TRB:2017:822196994
IT:BA:TRB:2017:789001516
IT:MI:TRB:2016:891541785
IT:BO:CPP:2016:2123336897
IT:TO:TMN:2015:1482692273
IT:PG:TRB:2016:1366998967
IT:NA:TRB:2015:2035068578
IT:RM:CPP:2016:945439508
IT:BO:TRB:2014:1912780987
IT:RM:TRB:2017:1555023317
IT:MI:TRB:2017:644566357
IT:FI:CPP:2018:30593979
IT:MI:TRB:2014:319926883
IT:BO:TRB:2015:1358958030
IT:BS:CPP:2014:654296383
IT:MI:TRB:2017:2115122552
IT:BZ:TRB:2014:2080770767
IT:PA:TRB:2015:1007240621
IT:RM:TRB:2015:217290713
IT:RM:TRB:2015:561556781
IT:MI:TRB:2016:1513077510
IT:MI:TRB:2014:2025707124
IT:MI:TRB:2017:319521238
IT:RM:CPP:2014:1514675475
IT:VE:TRB:2017:701677760
IT:AN:CPP:2014:1520766702
IT:AQ:TRB:2015:928189172
IT:RM:TRB:2017:292692490
IT:AN:TRB:2018:1459498851
IT:BO:TRB:2016:788580445
IT:RM:TRB:2014:1000846081
IT:RM:TRB:2015:206094947
IT:BO:TRB:2014:628425038
IT:BO:TRB:2015:1407127647
IT:FI:TRB:2017:1959810710
IT:CA:TRB:2015:1489445212
IT:CZ:TRB:2018:951055088
IT:VE:TRB:2017:537141304
IT:VE:TRB:2016:979915992
IT:MI:TRB:2018:401445008
IT:MI:CPP:2017:2023737334
IT:VE:TRB:2017:435038837
IT:RM:CPP:2015:993185866
IT:RM:TRB:2016:750026452
IT:NA:TRB:2016:25346798
IT:GE:CPP:2015:1588182770
IT:AQ:TRB:2015:1724586783
IT:NA:TRB:2016:650930212
IT:MI:TRB:2016:587996650
IT:VE:TRB:2014:1482831633
IT:RM:TRB:2015:2029288260
IT:RM:CPP:2016:2103181970
IT:AN:TRB:2017:590339770
IT:RM:TRB:2016:1581296255
IT:CA:TRB:2014:556746947
IT:VE:TRB:2017:308975959
IT:BS:TRB:2017:1822049009
IT:RM:TRB:2017:512193360
IT:CA:TRB:2014:36125062
IT:MI:TRB:2018:1133399659
IT:BA:CPP:2015:1980921389
IT:PA:TRB:2016:959271871
IT:FI:TRB:2015:154127348
IT:VE:TRB:2016:1011030018
IT:PA:TRB:2015:950904192
IT:LE:CSS:2017:1010760665
IT:TA:TRB:2017:2013222929
IT:NA:TRB:2017:336418077
IT:FI:TRB:2015:1001574711
IT:RM:TRB:2014:1475376801
IT:CA:TRB:2016:334747866
IT:MI:TRB:2016:1911408047
IT:CA:TRB:2016:861233409
IT:BO:TRB:2014:1208382328
IT:TS:TRB:2017:1742767184
IT:AQ:TRB:2014:1588624812
IT:CA:TRB:2015:504618724
IT:MI:TRB:2014:378834482
IT:CA:GPC:2017:650062265
IT:CA:TRB:2016:1415934949
IT:FI:TRB:2015:1336592717
IT:RM:TRB:2016:513348061
IT:FI:CPP:2017:1636505502
IT:MI:TRB:2018:289543328
IT:BO:TRB:2014:1686913315
IT:NA:TRB:2015:997467892
IT:BO:TRB:2014:1914055740
IT:MI:TRB:2016:941511234
IT:BZ:TRB:2015:183893786
IT:NA:CPP:2015:1457412954
IT:BS:CPP:2015:1534061277
IT:FI:TRB:2016:1848201452
IT:RM:TRB:2016:854555585
IT:BS:CPP:2016:1390437250
IT:MI:CPP:2015:522585206
IT:BA:TRB:2017:1092224876
IT:MI:CPP:2016:1909828038
IT:CZ:CPP:2015:2098220582
IT:CT:TRB:2016:1096152840
IT:BO:TRB:2017:1955797063
IT:GE:CPP:2015:1073169042
IT:MI:TRB:2017:1070287069
IT:AN:TRB:2017:853203029
IT:GE:CPP:2017:598199721
IT:RM:TRB:2016:996142304
IT:TO:TRB:2015:2049800726
IT:FI:TRB:2016:2078039061
IT:RM:TRB:2016:394946339
IT:MI:CPP:2016:1973660714
IT:TN:TRB:2015:431024870
IT:MI:TRB:2014:911939726
IT:MI:TRB:2014:261514687
IT:RM:TRB:2015:2088826195
IT:MI:TRB:2018:1499508136
IT:MI:TRB:2016:87184882
IT:FI:TRB:2017:336469290
IT:NA:CPP:2014:195070298
IT:RM:CPP:2017:711632363
IT:BO:TRB:2014:114717582
IT:CA:CPP:2015:1921463989
IT:RC:TRB:2016:263296791
IT:MI:TRB:2017:497607792
IT:RM:TRB:2017:354557597
IT:CA:TRB:2016:1122751755
IT:BO:TRB:2014:226425794
IT:MI:TRB:2014:776097352
IT:CA:TRB:2017:1335989590
IT:MI:TRB:2015:185370927
IT:MI:TRB:2015:1112945929
IT:PG:TRB:2015:1119458052
IT:TS:TRB:2016:1994820622
IT:MI:CPP:2016:1188239668
IT:MI:TRB:2017:310194946
IT:CA:TRB:2016:882855852
IT:MI:TRB:2016:1573433899
IT:CA:TRB:2017:299024323
IT:MI:CPP:2017:1974704927
IT:MI:TRB:2018:629538772
IT:VE:TRB:2017:682204877
IT:BO:CPP:2015:1578516138
IT:MI:TRB:2015:1350830456
IT:MI:TRB:2014:16521641
IT:TN:TRB:2016:357923846
IT:LE:CPP:2015:314182531
IT:FI:TRB:2017:732527477
IT:FI:TRB:2014:1198234050
IT:MI:TRB:2017:603260714
IT:MI:TRB:2017:816139504
IT:FI:TRB:2015:1940386100
IT:FI:TRB:2014:43035325
IT:NA:CPP:2018:1008482593
IT:FI:TRB:2016:291996063
IT:GE:TRB:2018:289255349
IT:BO:TRB:2017:343139605
IT:RM:TRB:2017:1864605616
IT:NA:TRB:2015:908519371
IT:MI:TRB:2016:12323794
IT:MI:TRB:2017:176449119
IT:MI:TRB:2017:1654963030
IT:BO:TRB:2018:220130212
IT:AQ:TRB:2017:1924816205
IT:RM:TRB:2015:2112249970
IT:MI:CPP:2015:1902239125
IT:MI:TRB:2016:1006581463
IT:CA:TRB:2015:849586677
IT:BO:TRB:2015:651146444
IT:NA:CPP:2014:795472590
IT:MI:TRB:2017:1255545663
IT:MI:TRB:2016:739571699
IT:MI:TRB:2016:1703341132
IT:MI:TRB:2017:589497104
IT:MI:TRB:2014:285581976
IT:ME:CPP:2016:1897080697
IT:MI:TRB:2016:319563794
IT:CA:CPP:2015:1725980801
IT:FI:TRB:2015:648172221
IT:GE:TRB:2016:1723096430
IT:BO:TRB:2017:241341333
IT:MI:TRB:2017:1857806843
IT:NA:TRB:2014:746891754
IT:MI:TRB:2014:22199058
IT:NA:CPP:2017:876425350
IT:MI:CPP:2015:894201787
IT:FI:CPP:2017:1908068790
IT:RM:TRB:2018:863529152
IT:BO:TRB:2015:1939600317
IT:CA:TRB:2016:813383721
IT:MI:TRB:2017:105853134
IT:PA:TRB:2017:1163496908
IT:MI:TRB:2018:1119247703
IT:BO:TRB:2015:575538288
IT:PG:TRB:2015:1219313802
IT:TO:TRB:2016:1603650561
IT:BO:TRB:2018:1286331524
IT:BO:TRB:2017:1216706291
IT:MI:TRB:2017:1228509474
IT:MI:CPP:2016:1678664471
IT:MI:TRB:2014:1582382481
IT:MI:TRB:2017:1919489881
IT:BO:TRB:2016:1292567983
IT:NA:TRB:2016:1471613715
IT:FI:CPP:2015:218456818
IT:RM:TRB:2016:362854619
IT:RM:TRB:2016:1133008906
IT:MI:CPP:2015:1334340942
IT:MI:TRB:2017:632959523
IT:BA:CPP:2017:43140435
IT:VE:TRB:2015:13651397
IT:AN:TRB:2016:1738213438
IT:MI:CPP:2015:935558442
IT:MI:CPP:2015:954391781
IT:MI:TRB:2016:1647342773
IT:GE:CPP:2014:724618554
IT:MI:TRB:2016:1746422065
IT:NA:TRB:2014:333730213
IT:MI:TRB:2017:699474895
IT:AN:CPP:2017:1329375923
IT:PA:TRB:2015:1872354079
IT:BO:TRB:2014:1120537094
IT:BO:TRB:2017:1502820286
IT:GE:TRB:2014:1845498580
IT:VE:TRB:2016:2035947485
IT:TA:TRB:2015:772916035
IT:BO:TRB:2015:951131737
IT:MI:TRB:2017:1759939041
IT:RM:CPP:2016:1925757252
IT:MI:TRB:2014:1472759823
IT:TO:TRB:2017:2002652269
IT:MI:TRB:2017:355870188
IT:TA:TRB:2017:641823943
IT:RM:TRB:2016:1939353418
IT:BO:TRB:2015:1285918298
IT:BO:TRB:2016:837882136
IT:RM:TRB:2016:465469685
IT:FI:TRB:2014:158337474
IT:FI:TRB:2015:1178787269
IT:LE:CPP:2015:2142660690
IT:CA:TRB:2014:1021786474
IT:FI:TRB:2016:1195217253
IT:MI:TRB:2014:553973521
IT:MI:TRB:2015:642970513
IT:RM:TRB:2015:278515469
IT:VE:CPP:2015:1241971952
IT:TO:TRB:2015:725846305
IT:LE:CPP:2017:1753254774
IT:NA:TRB:2018:576801785
IT:NA:TRB:2017:676751139
IT:FI:TRB:2016:651782947
IT:MI:TRB:2016:985748411
IT:MI:TRB:2015:943718485
IT:MI:TRB:2017:1749095210
IT:MI:TRB:2015:943718484
IT:PA:TRB:2016:1926781038
IT:BO:TRB:2018:747138735
IT:RM:TRB:2014:1757188139
IT:MI:TRB:2017:728652656
IT:NA:CPP:2017:463084525
IT:MI:CPP:2014:339494073
IT:VE:TRB:2015:1690770072
IT:TN:TRB:2014:772441113
IT:GE:TRB:2017:715319236
IT:RM:TRB:2015:846400566
IT:RM:TRB:2016:1551570965
IT:GE:TRB:2017:76689534
IT:BO:TRB:2016:1893477860
IT:NA:TRB:2017:574134653
IT:FI:TRB:2017:712308181
IT:MI:TRB:2017:708847157
IT:RM:TRB:2017:933723028
IT:LE:TRB:2017:60304747
IT:NA:TRB:2015:1768869591
IT:VE:TRB:2017:2111224665
IT:NA:TRB:2015:1566375862
IT:VE:TRB:2016:2055931786
IT:MI:CPP:2014:258747654
IT:MI:TRB:2015:1618921839
IT:MI:TRB:2017:1842603333
IT:RM:TRB:2015:1166735176
IT:NA:TRB:2015:2002753405
IT:FI:TRB:2014:43033616
IT:TS:TRB:2016:1729692907
IT:VE:TRB:2015:1322661097
IT:RM:TRB:2015:277830269
IT:MI:TRB:2017:651228319
IT:MI:TRB:2016:282302071
IT:MI:TRB:2014:2145789998
IT:AQ:TRB:2017:95727236
IT:MI:CPP:2014:2139955912
IT:PZ:CPP:2017:716908574
IT:BZ:TRB:2016:683135375
IT:RM:TRB:2018:2105176234
IT:MI:TRB:2017:1283118373
IT:BA:TRB:2015:911201887
IT:NA:TRB:2014:1026817297
IT:RM:TRB:2017:1247799092
IT:BO:CPP:2015:2060748748
IT:RM:CPP:2015:50802404
IT:PG:TRB:2014:1677644944
IT:MI:TRB:2017:725090473
IT:BO:GPC:2017:1213077183
IT:NA:TRB:2016:1173726522
IT:GE:TRB:2018:1918629021
IT:MI:TRB:2018:57066680
IT:MI:TRB:2016:1035675537
IT:FI:TRB:2015:1550066027
IT:MI:TRB:2016:648675386
IT:MI:TRB:2014:738543629
IT:BA:CPP:2018:813555388
IT:RM:TRB:2017:37016212
IT:TA:TRB:2017:914346104
IT:NA:TRB:2014:1638174242
IT:BO:CPP:2015:1236484011
IT:MI:TRB:2016:1318647677
IT:BO:TRB:2015:896561586
IT:RM:TRB:2015:1575631823
IT:MI:TRB:2017:2056243648
IT:RM:TRB:2017:1147406157
IT:RM:TRB:2014:595549592
IT:MI:CPP:2016:212734442
IT:PA:TRB:2017:1847085905
IT:PA:TRB:2016:1974267478
IT:RM:TRB:2017:78092919
IT:MI:CPP:2015:563968260
IT:VE:TRB:2017:1586770868
IT:NA:TRB:2016:1173779056
IT:TS:GPC:2016:1801845327
IT:MI:TRB:2018:270238885
IT:RM:TRB:2015:1501844833
IT:TN:CPP:2016:2133718589
IT:FI:TRB:2014:1610526584
IT:FI:TRB:2014:180639732
IT:MI:TRB:2014:336889844
IT:MI:TRB:2017:474541039
IT:MI:TRB:2015:689974747
IT:BO:TRB:2016:59763683
IT:BA:TRB:2016:1236076007
IT:AN:TRB:2017:1729784258
IT:NA:GPC:2017:2025901353
IT:TS:TRB:2016:71236940
IT:MI:TRB:2015:992411604
IT:RM:TRB:2016:2048136905
IT:MI:TRB:2014:509713969
IT:FI:TRB:2014:1295987924
IT:MI:TRB:2015:2004646724
IT:PA:TRB:2016:559363205
IT:SS:TRB:2015:1094649360
IT:FI:TRB:2014:533438479
IT:TA:GPC:2016:423081013
IT:NA:CPP:2014:1695530306
IT:TA:TRB:2015:705685910
IT:NA:TRB:2017:429546092
IT:TO:TRB:2015:1026321037
IT:MI:CPP:2015:187533036
IT:RM:TRB:2014:66511469
IT:VE:TRB:2016:660679705
IT:RM:TRB:2014:1792289769
IT:MI:TRB:2016:1443728242
IT:GE:CPP:2018:798866931
IT:MI:TRB:2017:1496157408
IT:RM:CPP:2018:143939641
IT:MI:CPP:2015:399757301
IT:CA:TRB:2017:489919737
IT:VE:CPP:2016:286925345
IT:RM:TRB:2017:1354710381
IT:PZ:TRB:2016:534674686
IT:PA:TRB:2016:1723540005
IT:BO:TRB:2017:1309925768
IT:CZ:TRB:2015:841194988
IT:BO:TRB:2016:73662882
IT:BO:CPP:2014:346763257
IT:CA:TRB:2016:1123852658
IT:CA:TRB:2014:778699088
IT:MI:TRB:2015:412031233
IT:TO:TRB:2014:199829912
IT:MI:CPP:2015:444496190
IT:CA:TRB:2014:1768332206
IT:CA:TRB:2016:1040869612
IT:NA:CPP:2014:472500595
IT:RM:TRB:2016:282876919
IT:VE:TRB:2016:1593448056
IT:RM:TRB:2017:602547485
IT:MI:TRB:2015:1088424163
IT:FI:CPP:2016:1392187331
IT:BA:TRB:2017:1808222366
IT:RM:TSV:2017:1654202127
IT:MI:TRB:2017:224853092
IT:MI:CSS:2016:1024861442
IT:NA:TRB:2018:1002983685
IT:MI:TRB:2017:283291019
IT:MI:TRB:2014:1198210686
IT:RM:TRB:2015:208081435
IT:BO:TRB:2014:219163102
IT:FI:TRB:2017:225760886
IT:MI:CPP:2017:766585692
IT:MI:CPP:2015:739019315
IT:FI:GPC:2016:1788926858
IT:MI:TRB:2014:613255130
IT:MI:TRB:2016:2082212100
IT:NA:TRB:2018:1153471006
IT:TN:TRB:2015:1796083519
IT:RM:TRB:2016:801954093
IT:GE:TRB:2014:702577218
IT:RM:TRB:2017:1998902820
IT:FI:TRB:2017:1267043462
IT:RC:TRB:2018:417769287
IT:FI:TRB:2014:1815377156
IT:CL:TRB:2016:519460394
IT:NA:CPP:2015:636090255
IT:MI:TRB:2016:1725182567
IT:FI:CPP:2017:1250851714
IT:VE:CPP:2017:161358880
IT:PZ:CPP:2017:2047072896
IT:RM:TRB:2017:1494109401
IT:GE:TRB:2014:2100821512
IT:MI:TRB:2016:1015661892
IT:FI:TRB:2015:929035470
IT:VE:TRB:2015:1277607807
IT:CA:TRB:2014:1848279792
IT:VE:TRB:2014:460822886
IT:NA:TRB:2014:1848153552
IT:RM:TRB:2014:55206646
IT:RM:TRB:2015:1409309027
IT:VE:TRB:2014:677936495
IT:FI:TRB:2014:1541880126
IT:NA:TRB:2014:1082781033
IT:PA:TRB:2014:477246777
IT:CB:CPP:2014:1211912231
IT:BO:TRB:2014:1814603651
IT:PA:CPP:2017:1906929717
IT:BO:TRB:2017:160680928
IT:MI:TRB:2014:542558424
IT:NA:TRB:2017:641931203
IT:MI:TRB:2017:486605965
IT:MI:TRB:2014:260510507
IT:RM:TRB:2016:453353653
IT:RM:TRB:2017:7133509
IT:MI:CPP:2014:910400377
IT:CT:TRB:2016:640377995
IT:CA:CPP:2014:291142701
IT:VE:TRB:2016:837650211
IT:MI:TRB:2014:879438048
IT:BO:TRB:2014:2039863402
IT:BA:TRB:2014:359753201
IT:MI:TRB:2015:1695604123
IT:SS:CPP:2015:1232714606
IT:BO:TRB:2018:2024813612
IT:RM:TRB:2017:782849442
IT:FI:CPP:2016:1180294466
IT:FI:TRB:2014:360882085
IT:MI:CPP:2018:1171998282
IT:MI:TRB:2017:1168075387
IT:NA:TRB:2016:115970515
IT:RM:TRB:2017:1036783762
IT:MI:TRB:2014:1629732306
IT:MI:TRB:2016:411122787
IT:VE:TRB:2017:299380058
IT:VE:CPP:2016:751902621
IT:RM:CPP:2016:2066505517
IT:RM:TRB:2015:1429027053
IT:RM:TRB:2017:1103199502
IT:CB:CPP:2016:1762831140
IT:PA:TRB:2017:1023917730
IT:CA:TRB:2014:1206822343
IT:PA:TRB:2017:1419414920
IT:BO:TRB:2017:163991664
IT:RM:TRB:2014:1032349448
IT:MI:TRB:2014:147947433
IT:BZ:TRB:2018:1920168989
IT:MI:TRB:2016:227518031
IT:MI:TRB:2016:1175271599
IT:MI:TRB:2016:818654304
IT:RM:CPP:2015:1085437629
IT:RM:TRB:2014:1166450549
IT:MI:TRB:2014:829062192
IT:TO:GPC:2016:1592731713
IT:MI:TRB:2015:77086527
IT:MI:TRB:2016:1920126792
IT:BO:TRB:2014:1340358798
IT:NA:TRB:2018:1982781459
IT:MI:TRB:2017:2030111465
IT:CA:CPP:2015:672099506
IT:MI:TRB:2015:101731071
IT:MI:CPP:2015:1411462223
IT:LE:TRB:2015:1940057283
IT:MI:TRB:2014:1525771179
IT:BO:TRB:2017:1471899370
IT:BO:TRB:2017:1475800633
IT:TS:TRB:2017:1651710034
IT:MI:TRB:2014:1809252930
IT:MI:TRB:2018:1997229264
IT:VE:TRB:2018:988243920
IT:VE:TRB:2017:963707367
IT:NA:CPP:2018:405276139
IT:BO:TRB:2016:505404237
IT:RM:GPC:2018:1417936172
IT:MI:TRB:2014:1906927667
IT:RM:TRB:2017:416786131
IT:BO:TRB:2015:339898220
IT:MI:TRB:2015:468064854
IT:BO:TRB:2015:1717146132
IT:RM:TRB:2017:397441194
IT:NA:TRB:2015:16172302
IT:MI:TRB:2018:1223208599
IT:CA:TRB:2015:856416415
IT:MI:TRB:2018:175213967
IT:MI:CPP:2014:850213799
IT:MI:CPP:2014:1051254519
IT:MI:TRB:2018:786241375
IT:RM:TRB:2016:1703938701
IT:RM:TRB:2014:373623689
IT:RM:TRB:2017:265598217
IT:RM:TRB:2017:1259788586
IT:MI:TRB:2014:1250510647
IT:MI:TRB:2016:210842325
IT:MI:CPP:2014:1175153786
IT:MI:CPP:2016:412215799
IT:RM:TRB:2018:1174856431
IT:MI:TRB:2015:1351448961
IT:FI:TRB:2014:620170511
IT:TS:TRB:2016:2059149498
IT:NA:TRB:2016:1363227683
IT:VE:TRB:2016:1410334536
IT:BO:TRB:2018:762807048
IT:BA:TRB:2018:1683864299
IT:MI:TRB:2018:2070570852
IT:RM:TRB:2017:641121141
IT:TN:CPP:2017:782923518
IT:MI:TRB:2014:1897037223
IT:MI:CPP:2015:462084840
IT:CA:TRB:2014:613989452
IT:MI:TRB:2017:761368398
IT:AN:TRB:2015:826415836
IT:MI:TRB:2015:1800715762
IT:RM:TRB:2016:296354990
IT:VE:TRB:2015:1338501186
IT:RM:TRB:2016:333395212
IT:FI:TRB:2017:1877903440
IT:CT:TRB:2015:641288314
IT:MI:TRB:2017:554990228
IT:MI:TRB:2017:807637883
IT:GE:TRB:2017:1410665981
IT:FI:TRB:2014:2048479826
IT:NA:TRB:2017:1625565666
IT:RM:TRB:2014:323542358
IT:RC:TRB:2017:1217551097
IT:VE:TRB:2017:245192440
IT:FI:TRB:2016:1149230946
IT:BO:TRB:2014:1057810041
IT:MI:TRB:2018:454777504
IT:RM:TRB:2017:667464590
IT:TS:TRB:2018:1968166436
IT:CZ:TRB:2016:1754192097
IT:AQ:TRB:2016:1997708398
IT:MI:TRB:2016:1994303640
IT:VE:TMN:2016:39408513
IT:MI:TRB:2016:5207003
IT:MI:TRB:2016:655311569
IT:FI:TRB:2016:185588266
IT:BO:TRB:2014:1836203883
IT:BO:TRB:2015:405420459
IT:PA:TRB:2017:1171299066
IT:RM:CPP:2017:1264843077
IT:MI:TRB:2017:1475303186
IT:MI:CPP:2016:1942542798
IT:NA:TRB:2014:857770241
IT:BO:TRB:2016:738700301
IT:FI:TRB:2016:1746425606
IT:TN:TRB:2015:1203072852
IT:BA:TRB:2018:684060302
IT:MI:TRB:2016:1629905712
IT:BO:TRB:2014:1718172816
IT:MI:TRB:2016:379874148
IT:AQ:TRB:2016:2088417067
IT:MI:CPP:2014:412102107
IT:RM:TRB:2014:409272519
IT:MI:TRB:2016:1167441895
IT:FI:TRB:2018:936844544
IT:MI:TRB:2016:2107613434
IT:VE:TSV:2014:203073622
IT:NA:TRB:2015:383511050
IT:FI:TRB:2014:667046653
IT:NA:CPP:2018:1584935791
IT:FI:TRB:2015:644608066
IT:BO:TRB:2016:1362130080
IT:MI:TRB:2014:1423431430
IT:VE:TRB:2018:62416073
IT:GE:CPP:2017:630396511
IT:NA:CPP:2015:1285108071
IT:MI:CPP:2017:697056712
IT:MI:TRB:2014:1835374351
IT:RM:TRB:2015:271020275
IT:VE:TRB:2015:2062727652
IT:MI:TRB:2016:692432751
IT:BO:TRB:2016:420019116
IT:VE:TRB:2017:1300057400
IT:BA:TRB:2018:1821428143
IT:BO:TRB:2017:1173589989
IT:FI:TRB:2015:1979049787
IT:RM:TRB:2015:736923268
IT:MI:TRB:2018:1198585194
IT:CA:CPP:2014:2039042189
IT:MI:CPP:2015:448570736
IT:PA:CPP:2018:1995322731
IT:CA:TRB:2017:575893904
IT:CT:TRB:2015:473460227
IT:NA:TRB:2017:2125226383
IT:MI:TRB:2017:342458804
IT:FI:TRB:2014:1456704850
IT:MI:TRB:2015:436480971
IT:TN:TRB:2017:1436550577
IT:MI:TRB:2018:874592019
IT:PG:TRB:2016:2127001950
IT:MI:TRB:2015:1127436849
IT:TO:TRB:2014:392676491
IT:MI:CPP:2015:1193080323
IT:MI:TRB:2016:909588911
IT:FI:TRB:2018:1946233204
IT:MI:TRB:2014:508733890
IT:BO:TRB:2014:1664644174
IT:AQ:TRB:2018:1288566540
IT:RM:TRB:2015:147171221
IT:BO:TRB:2014:974472468
IT:FI:CPP:2017:295988530
IT:TA:TRB:2016:1857598184
IT:RM:TRB:2017:987605999
IT:MI:TRB:2017:310222296
IT:BA:CPP:2016:1152919467
IT:AQ:TRB:2016:443628104
IT:RM:TRB:2014:1971565226
IT:TA:TRB:2015:158845561
IT:PA:TRB:2017:2042520020
IT:RM:TRB:2016:1821367169
IT:VE:TRB:2015:1624572689
IT:MI:CPP:2018:509147135
IT:MI:TRB:2014:1693017281
IT:MI:TRB:2017:435336049
IT:MI:TRB:2017:1520764110
IT:BO:CPP:2015:2025259360
IT:BO:CPP:2017:1636330528
IT:AQ:CPP:2016:1968959661
IT:BO:TRB:2017:882791624
IT:MI:TMN:2016:1477380296
IT:NA:TRB:2016:1292748603
IT:NA:TRB:2016:1763591754
IT:FI:TRB:2017:1691001735
IT:CA:CPP:2016:1360696518
IT:SS:TRB:2016:457181796
IT:MI:TRB:2014:1007956899
IT:BS:TRB:2014:1244555994
IT:MI:TRB:2015:404994157
IT:TN:TRB:2015:382494484
IT:LE:TRB:2015:1824122771
IT:TO:TRB:2018:1241228966
IT:RM:TRB:2016:326839152
IT:NA:CPP:2017:127726721
IT:MI:CPP:2015:1320075883
IT:MI:TRB:2016:85854087
IT:RM:TRB:2017:778164493
IT:MI:TRB:2015:1536255250
IT:BO:TRB:2017:218302377
IT:RM:TRB:2015:507903608
IT:RM:TRB:2017:670929950
IT:BA:CPP:2018:930436188
IT:CZ:TRB:2017:1599585920
IT:RM:CPP:2017:1639115966
IT:RM:TRB:2017:1826554418
IT:TS:CPP:2016:102665322
IT:MI:CPP:2014:1256895867
IT:MI:TRB:2016:638117054
IT:RM:TRB:2015:127405177
IT:FI:TRB:2017:432012696
IT:MI:TRB:2017:1222636832
IT:MI:TRB:2017:646190859
IT:BZ:TRB:2015:2117516168
IT:MI:TRB:2016:821910594
IT:CA:CPP:2018:163673056
IT:TS:CPP:2017:814663292
IT:MI:TRB:2017:799028471
IT:NA:TRB:2016:2033877682
IT:CA:TRB:2014:1919020820
IT:RM:CPP:2017:1154414431
IT:TO:TMN:2015:1260062750
IT:RM:TRB:2017:1140351465
IT:NA:TRB:2016:1637565016
IT:MI:CPP:2014:1569303025
IT:BO:TRB:2016:1006320979
IT:MI:TRB:2016:1862782205
IT:TA:TRB:2015:786837700
IT:TA:TRB:2017:1751513495
IT:AQ:TRB:2016:2006497608
IT:MI:TRB:2014:871273229
IT:TN:TRB:2017:1528516403
IT:NA:TRB:2015:214544437
IT:ME:TRB:2014:1750838654
IT:NA:TRB:2016:1918711537
IT:FI:CPP:2014:1779379527
IT:BO:TRB:2015:1600154591
IT:MI:TRB:2015:747634778
IT:MI:TRB:2014:1635885011
IT:MI:TRB:2015:1664464065
IT:BA:TRB:2017:1180214701
IT:RM:TRB:2016:919848341
IT:LE:CPP:2014:1995466803
IT:RM:TRB:2014:1980404728
IT:NA:TRB:2016:884427865
IT:TA:TRB:2016:1015090424
IT:NA:CPP:2014:1289349275
IT:BS:TRB:2014:969144886
IT:NA:TRB:2016:596595312
IT:VE:TRB:2014:294748100
IT:RM:TRB:2016:1848426325
IT:RM:CPP:2014:1630993480
IT:VE:TRB:2015:1574459426
IT:MI:TRB:2014:11104220
IT:VE:TRB:2014:477654617
IT:NA:TRB:2015:2061111939
IT:RM:TRB:2015:1948930600
IT:MI:TRB:2018:1260855555
IT:NA:CPP:2016:1276299872
IT:TN:TRB:2016:1596916962
IT:MI:TRB:2016:1045796561
IT:TO:TRB:2017:1613260949
IT:MI:TRB:2017:627922028
IT:SS:GPC:2016:898661430
IT:RM:TRB:2016:1416725081
IT:RM:TRB:2015:1375369419
IT:BO:TRB:2014:1542536866
IT:VE:TRB:2014:1494684442
IT:MI:TRB:2016:1058523988
IT:MI:TRB:2015:1076372434
IT:MI:TRB:2018:668641717
IT:BO:TRB:2016:1139710708
IT:CT:CPP:2015:794084195
IT:MI:CPP:2017:1738392248
IT:MI:CPP:2017:1331397033
IT:VE:TRB:2018:770839614
IT:CT:TRB:2016:1311204045
IT:RM:TRB:2018:1548194075
IT:TS:TRB:2018:1985770600
IT:NA:TRB:2016:1536571987
IT:MI:TRB:2017:1620578346
IT:CT:TRB:2017:1647377843
IT:MI:CPP:2017:589251111
IT:NA:TRB:2014:1327258673
IT:GE:TRB:2017:955759630
IT:TN:CPP:2017:892586931
IT:MI:TRB:2016:2058673091
IT:MI:CPP:2016:1199207184
IT:BA:TRB:2018:1378473761
IT:TS:CPP:2017:2045475496
IT:VE:CPP:2016:702123212
IT:MI:TRB:2015:814990961
IT:TS:TRB:2014:1282461966
IT:TS:TRB:2017:2126195750
IT:MI:TRB:2017:234559284
IT:RM:CPP:2018:47048366
IT:BZ:TRB:2017:1326045472
IT:MI:CPP:2017:584264428
IT:GE:TRB:2016:101428786
IT:NA:TRB:2017:1795106258
IT:MI:CPP:2014:293335576
IT:BO:CPP:2016:1900968758
IT:GE:TRB:2015:144227809
IT:FI:TRB:2018:490194512
IT:PZ:TRB:2017:1206492427
IT:MI:TRB:2016:1850661717
IT:BO:TRB:2016:2071089955
IT:TN:TRB:2016:1727144967
IT:VE:TRB:2015:907280102
IT:FI:TRB:2015:1186329930
IT:MI:TRB:2017:1383961596
IT:TO:CPP:2014:1427225653
IT:AQ:TRB:2016:2138830273
IT:MI:CPP:2014:453264654
IT:FI:TRB:2014:1994917518
IT:BO:TRB:2017:1605164946
IT:FI:TRB:2017:634593604
IT:GE:TMN:2017:401091937
IT:NA:TRB:2017:12884924
IT:BO:TRB:2014:323966118
IT:CA:TRB:2016:1431805255
IT:AN:TRB:2017:263202098
IT:BO:TRB:2014:652058234
IT:RM:TRB:2017:701002381
IT:NA:TRB:2018:880500188
IT:MI:TRB:2016:1898101313
IT:MI:TRB:2016:2105998506
IT:BA:TRB:2016:1706897046
IT:VE:TRB:2016:1122821631
IT:CA:CPP:2017:1254823572
IT:BO:TRB:2015:84674283
IT:MI:TRB:2016:1683533764
IT:RM:TRB:2016:1340526137
IT:BO:CPP:2014:311537259
IT:GE:TRB:2014:1558455798
IT:BO:CPP:2016:1109227304
IT:RM:TRB:2017:1202052453
IT:MI:TRB:2014:701843067
IT:MI:TRB:2015:832151182
IT:BA:TRB:2018:1973665544
IT:TA:TRB:2017:1097774021
IT:MI:TRB:2015:550675497
IT:MI:TRB:2016:1025396649
IT:TO:CPP:2016:1713526690
IT:MI:TRB:2017:1072283995
IT:NA:TRB:2016:918049351
IT:MI:TRB:2018:575228059
IT:MI:CPP:2015:138423867
IT:CA:TRB:2016:465327163
IT:RM:CPP:2015:1259240400
IT:BA:TRB:2017:1376025449
IT:NA:TRB:2015:629426769
IT:CT:TRB:2017:1065512112
IT:GE:TRB:2017:23948109
IT:MI:TRB:2016:5641115
IT:AN:TRB:2017:1971813458
IT:MI:TRB:2015:205036261
IT:NA:TRB:2017:1950294499
IT:NA:CPP:2018:385159666
IT:MI:TRB:2016:598501577
IT:BA:TRB:2015:63180177
IT:MI:TRB:2014:58705565
IT:MI:TRB:2017:337747912
IT:PA:TRB:2018:1270627858
IT:RM:TRB:2017:491515176
IT:RM:TRB:2014:623825445
IT:MI:TRB:2014:1202023114
IT:MI:TRB:2017:995764936
IT:VE:TRB:2017:712152442
IT:RM:TRB:2015:1584725218
IT:MI:CPP:2014:2048908576
IT:BO:TRB:2017:1785072169
IT:MI:TRB:2015:219858608
IT:RM:CPP:2017:464103922
IT:RM:TRB:2017:331687821
IT:PA:TRB:2014:2023182201
IT:FI:TRB:2016:1513615611
IT:PA:GPC:2018:713581272
IT:MI:TRB:2016:644388568
IT:AQ:TRB:2017:1755777584
IT:CL:CPP:2016:1183581701
IT:MI:TRB:2016:137970527
IT:AN:TRB:2018:1077531687
IT:RM:TRB:2016:1612704863
IT:RM:TRB:2016:1599193658
IT:TS:TRB:2014:692790082
IT:MI:TRB:2015:1306957020
IT:TO:CPP:2016:2044769758
IT:NA:TRB:2016:1562229180
IT:MI:TRB:2017:1191544060
IT:BO:TRB:2016:2086969028
IT:PA:TRB:2015:463672130
IT:MI:TRB:2016:369934361
IT:MI:TRB:2015:1681223071
IT:MI:CPP:2014:746044545
IT:MI:TRB:2015:1157454407
IT:TO:TRB:2017:543542864
IT:CL:TRB:2016:769054645
IT:AN:CPP:2014:1598818299
IT:BA:TRB:2015:1147390853
IT:CB:TRB:2018:1899057115
IT:BO:CPP:2015:1158479405
IT:MI:TRB:2016:1513118164
IT:FI:CPP:2017:236770586
IT:VE:TRB:2015:806589930
IT:FI:CPP:2015:1783462394
IT:RM:TRB:2015:1048239634
IT:RM:CPP:2015:894749048
IT:FI:TRB:2014:733280412
IT:MI:TRB:2017:947106773
IT:BA:TRB:2014:347968131
IT:BA:TRB:2017:1410611555
IT:NA:TRB:2018:1507307153
IT:MI:TRB:2015:533360133
IT:VE:TRB:2015:1385433336
IT:MI:TRB:2018:1167422960
IT:FI:CPP:2015:1643057819
IT:TO:TRB:2018:295862791
IT:BA:TRB:2017:30223860
IT:RM:TRB:2014:1380073274
IT:NA:CPP:2017:674568376
IT:NA:TRB:2016:75468471
IT:VE:TRB:2017:1622741631
IT:TN:TRB:2016:1167299760
IT:MI:TRB:2015:1219692591
IT:NA:TRB:2017:330909956
IT:VE:TRB:2015:2111229072
IT:RM:TRB:2017:2047927872
IT:MI:TRB:2017:1286044137
IT:TO:TRB:2017:145302419
IT:NA:TRB:2018:2085698981
IT:GE:TRB:2018:47185158
IT:TS:GPC:2016:1303962779
IT:NA:TRB:2016:470757786
IT:RM:TRB:2016:1215389862
IT:FI:CPP:2015:399416582
IT:VE:TRB:2016:307209429
IT:NA:TRB:2018:47580231
IT:MI:TRB:2015:544895079
IT:MI:TRB:2016:1942273284
IT:TO:TRB:2014:1901021217
IT:CA:CPP:2015:1539091650
IT:MI:TRB:2017:2118410283
IT:NA:CPP:2014:1977510509
IT:VE:CPP:2016:583736176
IT:RM:TRB:2015:536033862
IT:CA:TRB:2015:559240008
IT:CT:TRB:2017:656381763
IT:MI:TRB:2017:1173882403
IT:BO:TRB:2015:1181326639
IT:PG:TRB:2014:241680454
IT:MI:TRB:2014:1346763443
IT:BO:TRB:2017:1928347106
IT:GE:TRB:2017:450712163
IT:MI:CPP:2014:1355772590
IT:MI:CPP:2017:715978234
IT:FI:TRB:2015:412070943
IT:BA:CPP:2016:1581010647
IT:GE:CPP:2017:588454792
IT:MI:CPP:2016:597424058
IT:RM:CPP:2014:1905063654
IT:RM:TRB:2015:141778462
IT:GE:TRB:2017:1241054036
IT:BO:TRB:2017:344679406
IT:RC:TRB:2017:997665873
IT:BA:TRB:2017:2127569714
IT:RM:CPP:2016:849805512
IT:BO:TRB:2017:1867821259
IT:FI:TRB:2018:734180962
IT:BO:TRB:2015:1547463911
IT:BO:TRB:2016:467870843
IT:MI:TRB:2015:986575288
IT:VE:TRB:2015:1582697402
IT:BO:TRB:2014:1108662885
IT:FI:TRB:2017:1812243658
IT:MI:TRB:2015:1399850112
IT:MI:CPP:2014:948247166
IT:CA:TRB:2016:1366966478
IT:RM:TRB:2015:423401597
IT:RM:TRB:2014:1123606464
IT:RM:TRB:2014:829070822
IT:MI:TRB:2017:1715080435
IT:FI:TRB:2014:1546357226
IT:BO:TRB:2017:35604078
IT:PA:TRB:2018:1674379717
IT:RM:TMN:2015:664000521
IT:CZ:CPP:2014:428987147
IT:MI:GPC:2016:813243427
IT:MI:CPP:2015:546723362
IT:RM:TRB:2017:1345299237
IT:BO:TRB:2014:100404994
IT:MI:CPP:2017:1794548761
IT:VE:TRB:2018:19378663
IT:RM:TRB:2015:846880761
IT:RM:TRB:2014:203945433
IT:NA:TRB:2014:1496064709
IT:MI:TRB:2016:1870225842
IT:NA:TRB:2016:235182976
IT:BO:TRB:2015:731009185
IT:MI:CPP:2017:419507590
IT:BO:TRB:2017:277567802
IT:MI:TRB:2016:2124771576
IT:RM:TRB:2018:582367687
IT:MI:TRB:2017:1792843998
IT:VE:TRB:2016:1379738058
IT:RM:GPC:2016:1049434139
IT:TS:TRB:2018:464919754
IT:GE:TRB:2015:229105050
IT:PA:CPP:2014:1638719135
IT:MI:CPP:2015:342288776
IT:NA:TRB:2018:1730935736
IT:MI:TRB:2016:1535338196
IT:MI:TRB:2015:1389212224
IT:MI:TRB:2014:778851885
IT:TO:TRB:2017:1505025024
IT:NA:TRB:2017:204403436
IT:BZ:TRB:2018:671106615
IT:BO:TRB:2017:55654952
IT:MI:TRB:2017:831300643
IT:ME:TRB:2017:1553752487
IT:BO:TRB:2017:11805987
IT:FI:TRB:2015:388549859
IT:MI:TRB:2016:1692762652
IT:CA:TRB:2016:1559639300
IT:MI:TRB:2014:776591178
IT:MI:TRB:2015:590487731
IT:RM:TRB:2014:1474199107
IT:AQ:TRB:2017:51451366
IT:MI:CPP:2016:483541436
IT:CA:TRB:2015:2057467808
IT:BA:TRB:2015:1567377953
IT:CA:TRB:2014:1859984041
IT:TO:TRB:2015:277803934
IT:AN:CPP:2014:696687882
IT:MI:CPP:2017:718517109
IT:NA:TRB:2018:127309281
IT:BO:CPP:2015:1902367164
IT:CB:TRB:2017:1519774716
IT:NA:TRB:2017:419134348
IT:RM:CPP:2015:202049377
IT:RM:TRB:2015:987234474
IT:RM:TRB:2016:208344170
IT:RM:TRB:2017:130263904
IT:NA:TRB:2017:2061214175
IT:BO:TRB:2016:1274366182
IT:BA:TRB:2018:1188677945
IT:MI:TRB:2016:236153065
IT:BO:TRB:2014:763568448
IT:RM:TRB:2014:1468115715
IT:RM:TRB:2014:1928554572
IT:TS:TRB:2018:1888405535
IT:TO:TRB:2014:413710824
IT:AQ:CPP:2016:375288526
IT:MI:TRB:2014:1585314625
IT:TS:TRB:2016:1840877056
IT:GE:CPP:2014:987704917
IT:BO:TRB:2014:866047103
IT:TO:TRB:2016:31884544
IT:MI:TRB:2015:1800253869
IT:MI:TRB:2017:2111389811
IT:RM:CPP:2016:2011418753
IT:MI:TRB:2014:1116608541
IT:MI:CPP:2015:91484555
IT:BO:TRB:2017:962270527
IT:FI:TRB:2015:305210771
IT:NA:TRB:2017:169657247
IT:BO:CPP:2016:519081802
IT:NA:TRB:2017:836701571
IT:NA:CPP:2017:995175727
IT:RM:TRB:2017:909796358
IT:RM:TRB:2014:1794772416
IT:TS:TRB:2015:132930161
IT:MI:TRB:2016:2019660727
IT:VE:CPP:2017:747479275
IT:MI:TRB:2016:651981310
IT:NA:TRB:2016:587692081
IT:BO:CPP:2014:1579547461
IT:CA:CPP:2015:1293468867
IT:PA:CPP:2015:1283706305
IT:RM:CPP:2015:952242239
IT:MI:CPP:2014:1008803901
IT:GE:TRB:2016:570046661
IT:TS:TRB:2017:410693031
IT:TN:TRB:2016:48969397
IT:CA:CPP:2015:1448577299
IT:MI:TRB:2014:506213073
IT:CA:TRB:2017:568257953
IT:MI:TRB:2017:1713414600
IT:CA:TRB:2016:471870519
IT:RM:TRB:2016:797204269
IT:TO:TRB:2014:1141613819
IT:MI:CSS:2018:876411433
IT:CA:TRB:2015:1598150228
IT:NA:TRB:2016:506456423
IT:CA:TRB:2015:275410647
IT:VE:TRB:2016:986649083
IT:RM:TRB:2017:2061899440
IT:BO:TRB:2015:1947006131
IT:MI:TRB:2017:534076878
IT:TO:CPP:2015:1598724541
IT:MI:CPP:2014:1323710208
IT:VE:TRB:2018:1019756451
IT:RM:TRB:2017:411176631
IT:MI:TRB:2017:1375177360
IT:RM:TRB:2018:1015402745
IT:FI:CPP:2017:2048469361
IT:MI:TRB:2016:1150547636
IT:MI:TRB:2015:415961516
IT:TS:TRB:2015:834619789
IT:AQ:TRB:2018:1353215070
IT:RM:TRB:2014:775105015
IT:BO:TRB:2017:921467328
IT:NA:TRB:2015:1476804334
IT:FI:TRB:2016:1037822285
IT:CT:CPP:2017:675776831
IT:VE:TRB:2017:1803293631
IT:CA:TRB:2017:1688258810
IT:MI:TRB:2016:2140574086
IT:VE:TRB:2018:515229523
IT:RM:TRB:2015:1598258879
IT:RM:TRB:2016:1456904511
IT:TO:TRB:2014:568764711
IT:RM:TRB:2015:843081101
IT:PA:CPP:2017:1313737950
IT:TS:TRB:2017:1985357270
IT:MI:TRB:2016:2137004496
IT:MI:TRB:2014:670372081
IT:RM:TRB:2015:1582289673
IT:NA:TRB:2017:85124009
IT:MI:TRB:2015:1936443831
IT:BO:TRB:2015:11899105
IT:MI:TRB:2015:1358638316
IT:RM:TRB:2016:42135367
IT:BO:GPC:2016:932145307
IT:BO:TRB:2017:1300296774
IT:MI:TRB:2015:244043937
IT:BO:TRB:2017:1027660906
IT:PA:CPP:2014:2006053374
IT:MI:TRB:2018:373414158
IT:MI:CPP:2014:237787001
IT:MI:TRB:2015:1871894405
IT:GE:TRB:2018:329586116
IT:RM:TRB:2018:1431853460
IT:VE:TRB:2014:1388648094
IT:RM:TRB:2017:1908068310
IT:MI:TRB:2014:1495426121
IT:MI:TRB:2015:701913385
IT:CT:TRB:2017:803984407
IT:MI:TRB:2014:652105991
IT:MI:CPP:2014:1999226494
IT:MI:TRB:2018:1634236532
IT:BO:CPP:2015:1444133385
IT:MI:CPP:2016:1683237315
IT:MI:TRB:2018:1070029
IT:FI:TRB:2017:1288857423
IT:BS:CPP:2016:593662004
IT:GE:CPP:2015:1063218715
IT:MI:TRB:2016:2052371821
IT:MI:TRB:2014:291808705
IT:RM:TRB:2014:315767657
IT:TA:CPP:2014:536820269
IT:NA:TRB:2015:389729173
IT:RM:TRB:2015:1571737679
IT:BO:TRB:2017:1852197324
IT:MI:TRB:2014:945400619
IT:RM:TRB:2016:1228009939
IT:NA:TRB:2017:829933439
IT:FI:TRB:2015:967448465
IT:RM:TRB:2017:1355113304
IT:MI:TRB:2017:775485970
IT:MI:TRB:2017:1545393685
IT:MI:TRB:2016:557270378
IT:MI:TRB:2014:634127679
IT:PA:TRB:2016:2044393257
IT:BO:TRB:2017:2042836752
IT:TN:TRB:2018:1238998807
IT:MI:TRB:2014:1218472732
IT:BO:CPP:2014:277207341
IT:MI:TRB:2015:1177197898
IT:MI:TRB:2014:1346047256
IT:BO:TRB:2014:666105468
IT:FI:TRB:2014:1039335317
IT:RM:TRB:2017:1932410035
IT:NA:CPP:2016:672853290
IT:BO:CPP:2014:789741841
IT:PG:TRB:2015:115607709
IT:BS:CPP:2018:1803739756
IT:RM:TRB:2018:1423129145
IT:MI:TRB:2015:1466472078
IT:FI:TRB:2016:636798869
IT:TO:TRB:2018:1440719895
IT:MI:TRB:2015:903132044
IT:MI:TRB:2015:1875455096
IT:RM:TRB:2017:1056477678
IT:FI:TRB:2017:816380793
IT:MI:TRB:2015:1607711782
IT:BO:TRB:2014:1452127167
IT:RM:TRB:2015:289244507
IT:RM:CPP:2015:2082315995
IT:TO:TRB:2015:1845070386
IT:RM:TRB:2014:1538430079
IT:BO:TRB:2016:83777000
IT:BO:TRB:2016:630699624
IT:RM:TRB:2015:1593764123
IT:CB:TRB:2018:887123464
IT:TO:CPP:2016:2053445834
IT:MI:TRB:2015:205730949
IT:RM:TRB:2015:609379180
IT:MI:TRB:2016:1882990554
IT:RM:TRB:2014:295032776
IT:RM:CPP:2014:388317416
IT:BO:TRB:2016:1065923402
IT:MI:TRB:2014:1623890751
IT:MI:TRB:2016:525663819
IT:BO:TRB:2015:327716322
IT:MI:TRB:2016:2006528764
IT:MI:TRB:2016:1492388844
IT:BO:TRB:2015:936491324
IT:FI:TRB:2015:173265775
IT:RM:TRB:2014:96850278
IT:GE:CPP:2016:1391751578
IT:MI:CPP:2017:860661254
IT:BA:TRB:2016:975384701
IT:RM:TRB:2017:266805292
IT:VE:CPP:2018:1747826298
IT:BO:TRB:2018:511776606
IT:RM:TRB:2017:1042129244
IT:AQ:TRB:2016:2056573042
IT:VE:TRB:2014:54106521
IT:MI:TRB:2015:1023770352
IT:BA:TRB:2016:1843352286
IT:BO:TRB:2014:1767883893
IT:CZ:TRB:2017:2146520962
IT:MI:TRB:2014:686252503
IT:CB:TRB:2017:1710502361
IT:MI:TRB:2018:1461494512
IT:MI:TRB:2016:366851375
IT:GE:CPP:2014:1043337832
IT:BO:TRB:2017:1192287319
IT:NA:CPP:2015:689812817
IT:RM:CPP:2017:1318097837
IT:BO:TRB:2016:1749163610
IT:BA:TRB:2015:2092031193
IT:FI:TRB:2017:806872792
IT:RM:TRB:2015:362148520
IT:RM:CPP:2016:479679710
IT:BO:TRB:2014:1494318802
IT:RM:CPP:2016:1380697847
IT:NA:TRB:2016:155249692
IT:PZ:TRB:2017:631752354
IT:BO:TRB:2014:885283135
IT:RM:TRB:2017:746934628
IT:NA:TRB:2016:2065019119
IT:VE:CPP:2016:280977899
IT:BA:TRB:2016:1644304336
IT:RM:TRB:2017:734476232
IT:BO:TRB:2014:1671112037
IT:MI:CPP:2017:1134538031
IT:NA:TRB:2016:899363837
IT:RM:TRB:2018:1364569841
IT:RM:TRB:2015:1083443717
IT:CT:CPP:2016:2045662580
IT:NA:TRB:2018:228449886
IT:PZ:TRB:2018:24937850
IT:SS:TRB:2016:552137450
IT:BA:TRB:2014:1957918483
IT:MI:TRB:2015:986817765
IT:FI:CPP:2014:2063791337
IT:RM:TRB:2017:1964373455
IT:MI:TRB:2014:1294996542
IT:VE:TRB:2015:208945144
IT:BO:TRB:2017:921396689
IT:GE:CPP:2016:1403483303
IT:MI:TRB:2014:1337194681
IT:MI:CPP:2015:700184467
