idITTIG	id_Provv	isEstremoCompleto	isEditManuale	isProvvedimentoConsegnato	dataConsegnaProvvedimento	isProvvedimentoTrovato	distretto	anno	tipo_ufficio	localita_ufficio	tipo_provvedimento	settore	provv_data	provv_numero	provv_sez	giudici	parti	num_registro	estremo_uniforme	estremo_provv	url_provv	fonte	url_contributo	rivista	editore	findable_IN	classificazioneTOP	classificazione	nota	provenance	localFilePath	notaRisposta	versione
IT:MI:TRB:2018:496269093	7323772	true	true	false		false	Milano	2018	TRIBUNALE	Bergamo	ORDINANZA	LAVORO	2018-01-02					n. 27436/2017	sentenza Tribunale Bergamo 2 gennaio 2018	Tribunale  Bergamo, 02 gennaio 2018		Le Sezioni Unite provano a fare chiarezza in materia di esclusione e licenziamento del socio lavoratore di cooperativa, ma l'incertezza del diritto potrebbe perdurare, Riv. Diritto delle relazioni industriali, Giuffrè, 2018, nota di IMBERTI LUCIO	https://dejure.it/#/ricerca/dottrine_documento?idDatabank=99&idDocMaster=7323772&idUnitaDoc=0&nVigUnitaDoc=1&docIdx=19&semantica=0&isPdf=false&isCorrelazioniSearch=false	Diritto delle relazioni industriali	Giuffrè	GFL	LAVORO SUBORDINATO	"LAVORO SUBORDINATO (Rapporto di)"" "		DEJURE_NAS_TRIB			1.5
IT:MI:TRB:2018:668641717	7471023	true	false	false		false	Milano	2018	TRIBUNALE	Como	DECRETO	CIVILE	2018-05-24		I	Giudice delegato, dr. A. Petronzi			sentenza Tribunale Como sez. I civ. 24 maggio 2018	Tribunale , Como , sez. I , 24/05/2018	https://dejure.it/#/ricerca/giurisprudenza_documento?idDatabank=6&idDocMaster=7471023&idUnitaDoc=0&nVigUnitaDoc=1&isCorrelazioniSearch=true	Assenza di limite temporale fisso nel piano del consumatore: ammissibilità ponderata al caso concreto, Riv. Ilfallimentarista.it, Giuffrè, 27 DICEMBRE  2018, nota di AMENDOLA LUIGI	https://dejure.it/#/ricerca/giurisprudenza_documento_giurisprudenza_commentata?idDatabank=198&idDocMaster=7730858&idUnitaDoc=0&nVigUnitaDoc=1&docIdx=8&semantica=0&isPdf=false&isCorrelazioniSearch=false	Ilfallimentarista.it	Giuffrè	GFL		#		DEJURE_COMM_TRIB			1.5
IT:MI:TRB:2017:1228509474	7354862	true	true	false		false	Milano	2017	TRIBUNALE	Milano	DECRETO	CIVILE	2017-12-12	12486	VI			n. r.g. 40466/2016	decreto Tribunale Milano sez. VI civ. 12 dicembre 2017, n. 12486	Tribunale  Milano, 12 dicembre 2017, n.12486, sez. VI		Estinzione del giudizio di opposizione: il decreto ingiuntivo acquisisce un'efficacia equiparata al giudicato, Riv. Ilprocessocivile.it, Giuffrè, 28 MAGGIO    2018, nota di COSTABILE CATERINA	https://dejure.it/#/ricerca/dottrine_documento?idDatabank=99&idDocMaster=7354862&idUnitaDoc=0&nVigUnitaDoc=1&docIdx=6&semantica=0&isPdf=false&isCorrelazioniSearch=false	Ilprocessocivile.it	Giuffrè	GFL		#		DEJURE_NAS_TRIB			1.5
IT:MI:TRB:2016:318593050	285	true	true	false		false	Milano	2016	TRIBUNALE	Milano	SENTENZA	CIVILE	2016-12-14	13625	spec. Impresa			n. r.g. 52005/2016	sentenza Tribunale Milano sez. spec. Impresa 12 dicembre 2016, n. 13625	sentenza Tribunale Milano sez. spec. Impresa 12 dicembre 2016, n. 13625		"""Italian Torpedo"" nuovamente bocciata dai Giudici di Milano, Rivista di diritto industriale, Giuffrè, 2017, 2, 315, nota di CANEVA DANIELE"	https://dejure.it/#/ricerca/dottrine_documento?idDatabank=99&idDocMaster=5369667&idUnitaDoc=0&nVigUnitaDoc=1&docIdx=7&semantica=0&isPdf=false&isCorrelazioniSearch=false	Rivista di diritto industriale	Giuffrè	GFL	BREVETTO EUROPEO E COMUNITARIO#TUTELA DEL BREVETTO#POLITICHE COMUNITARIE	BREVETTO EUROPEO E COMUNITARIO;TUTELA DEL BREVETTO;POLITICHE COMUNITARIE		DoGi-DEJURE_NAS_TRIB			1.5
IT:MI:TRB:2016:1013462763	5372760	true	true	false		false	Milano	2016	TRIBUNALE	Bergamo	DECRETO	CIVILE	2016-01-28		II	dr. Mauro Vitiello presidente rel. dr.ssa Laura Giraldi giudice dr. Giovanni Panzeri giudice		PROCEDIMENTO DI CONCORDATO PREVENTIVO n. 28/15	decreto Tribunale Bergamo sez. II civ. 28 gennaio 2016	Tribunale , Bergamo , sez. II , 28/01/2016	https://dejure.it/#/ricerca/giurisprudenza_documento?idDatabank=6&idDocMaster=5372760&idUnitaDoc=0&nVigUnitaDoc=1&isCorrelazioniSearch=true	Linee di credito autoliquidanti e scioglimento ex art. 169 bis l.fall., Riv. Ilfallimentarista.it, Giuffrè, 7 DICEMBRE  2016, nota di BISIGNANO VALERIA	https://dejure.it/#/ricerca/giurisprudenza_documento_giurisprudenza_commentata?idDatabank=198&idDocMaster=7084236&idUnitaDoc=0&nVigUnitaDoc=1&docIdx=16&semantica=0&isPdf=false&isCorrelazioniSearch=false	Ilfallimentarista.it	Giuffrè	GFL		#		DEJURE_COMM_TRIB			1.5
IT:MI:TRB:2015:1358638316	1191	true	true	false		false	Milano	2015	TRIBUNALE	Milano	SENTENZA	CIVILE	2015-01-27		1			n. r.g. 40283/2010	sentenza Tribunale Milano sez. I civ. 27 gennaio 2015, n. 40283	sentenza Tribunale Milano 27 gennaio 2015	http://studiolegale.leggiditalia.it/#id=44MA0002515923,__m=document	"Danno permanente alla persona e risarcimento sotto forma di rendita vitalizia, Riv. La Nuova giurisprudenza civile commentata, Wolters Kluwer Italia s.r.l., 2015, 7-8, 626, nota di MAZZANTI CATERINA""#""Rendita vitalizia in caso di danno patrimoniale futuro e da incapacità lavorativa: criteri di determinazione, Riv. Responsabilità civile e previdenza, Giuffrè, 2015, 5, 1645, nota di CHINDEMI DOMENICO""#""Il risarcimento in forma di rendita vitalizia ex art. 2057 c.c. del danno patrimoniale futuro: alcuni spunti di riflessione., Rivista italiana di medicina legale e del diritto in campo sanitario, Giuffrè, 2015, nota di FURLANETTO ANTONIO, MACRÌ ERNESTO"	http://studiolegale.leggiditalia.it/#id=10AR0000158012ART1,__m=document | https://dejure.it/#/ricerca/dottrine_documento?idDatabank=99&idDocMaster=4797480&idUnitaDoc=0&nVigUnitaDoc=1&docIdx=8&semantica=0&isPdf=false&isCorrelazioniSearch=false | https://dejure.it/#/ricerca/dottrine_documento?idDatabank=99&idDocMaster=4961521&idUnitaDoc=0&nVigUnitaDoc=1&docIdx=4&semantica=0&isPdf=false&isCorrelazioniSearch=false	La Nuova giurisprudenza civile commentata#Responsabilità civile e previdenza#Rivista italiana di medicina legale e del diritto in campo sanitario	Wolters Kluwer Italia s.r.l.#Giuffrè#Giuffrè	WKI#GFL#GFL	VALUTAZIONE DEI DANNI#DANNO BIOLOGICO (DANNO ALLA SALUTE)#RENDITA VITALIZIA#DIRITTO COMPARATO IN GENERALE#DANNO PATRIMONIALE#DANNO NON PATRIMONIALE#DANNI	"VALUTAZIONE DEI DANNI;DANNO BIOLOGICO (DANNO ALLA SALUTE);RENDITA VITALIZIA;DIRITTO COMPARATO IN GENERALE#RENDITA VITALIZIA;DANNO PATRIMONIALE;DANNO NON PATRIMONIALE#""DANNI"" | ""DANNI"" "		DoGi-WKI_NAS_TRIB-SAME_AS-DoGi-DoGi			1.5
IT:MI:TRB:2016:2105998506	3814	true	true	false		false	Milano	2016	TRIBUNALE	Milano	SENTENZA	COMMERCIALE	2017-01-19		spec. Impresa		Larene S.r.l. c. L. D.M.	n. r.g. 69494/2016	sentenza Tribunale Milano sez. spec. Impresa 19 gennaio 2017, n. 69494-2016#69494	sentenza Tribunale Milano sez. spec. Impresa - B 19 gennaio 2017, n. 69494/2016	http://studiolegale.leggiditalia.it/#id=44MA0002653505+44MA0002653506+44MA0002653507+44MA0002653508+44MA0002653509+44MA0002653518,__m=document	"I diritti di controllo del singolo comproprietario di quota di s.r.l., Rivista dei dottori commercialisti, Giuffrè, 2017, 2, 281, nota di MIRAMONDI MATTEO""#""Note in tema di termini societari e di sottoscrizione di aumento di capitale, Riv. Giurisprudenza italiana, Wolters Kluwer Italia s.r.l., 2018, 3, 670, nota di BERTOLOTTI ANGELO""#""Comunione di quote e legittimazione all'esercizio del diritto di informazione del socio non amministratore, Riv. Le Società: rivista di diritto e pratica commerciale, societaria e fiscale, Wolters Kluwer Italia s.r.l., 2017, 8-9, 970, nota di MELE BARBARA"	http://studiolegale.leggiditalia.it/#id=10AR0000191219ART1,__m=document | http://studiolegale.leggiditalia.it/#id=10AR0000183288ART1,__m=document	Rivista dei dottori commercialisti#Giurisprudenza italiana#Le Società: rivista di diritto e pratica commerciale, societaria e fiscale	Giuffrè#Wolters Kluwer Italia s.r.l.#Wolters Kluwer Italia s.r.l.	GFL#WKI#WKI	SOCIETÀ DI CAPITALI	SOCIETÀ DI CAPITALI#SOCIETÀ DI CAPITALI#SOCIETÀ DI CAPITALI		DoGi-SAME_AS-DoGi-DEJURE_NAS_TRIB			1.5
IT:MI:TRB:2015:1681223071	4858417	true	true	false		false	Milano	2015	TRIBUNALE	Milano	ORDINANZA	CIVILE	2015-11-11		VI	Giudice Margherita Monte	Banca Popolare Commercio e Industria spa	n. r.g. 54706/2015	sentenza Tribunale Milano sez. VI civ. 11 novembre 2015	Tribunale  Milano, 11 novembre 2015, sez. VI		Nota ad ordinanza del Tribunale di Milano del 11.11.2015, Giudice Margherita Monte R.G 54706/2015, Riv. --, Giuffrè, 2015, nota di RICCIO BIAGIO	https://dejure.it/#/ricerca/dottrine_documento?idDatabank=99&idDocMaster=4858417&idUnitaDoc=0&nVigUnitaDoc=1&docIdx=12&semantica=0&isPdf=false&isCorrelazioniSearch=false	--	Giuffrè	GFL	BANCA (Istituti di credito)	"BANCA (Istituti di credito)"" | ""BANCA (Istituti di credito)"" "		DEJURE_NAS_TRIB			1.5
IT:RM:TRB:2018:1364569841	7357636	true	true	false		false	Roma	2018	TRIBUNALE	Roma	SENTENZA	CIVILE	2018-03-13	5521	VI	Manuela Scoppetta, giudice monocratico		n.r.g.19723/2017	ordinanza Tribunale Roma sez. VI civ. 13 marzo 2018, n. 5521	Tribunale , Roma , sez. VI , 13/03/2018 , n. 5521	https://dejure.it/#/ricerca/giurisprudenza_documento?idDatabank=6&idDocMaster=7357636&idUnitaDoc=0&nVigUnitaDoc=1&isCorrelazioniSearch=true	La notificazione dell''intimazione di sfratto a mezzo PEC, Riv. Ilprocessotelematico.it, Giuffrè, 19 SETTEMBRE 2018, nota di NAPPO GIUSEPPE, CAPUTO SARAH	https://dejure.it/#/ricerca/giurisprudenza_documento_giurisprudenza_commentata?idDatabank=198&idDocMaster=7605298&idUnitaDoc=0&nVigUnitaDoc=1&docIdx=16&semantica=0&isPdf=false&isCorrelazioniSearch=false	Ilprocessotelematico.it	Giuffrè	GFL		#		DEJURE_COMM_TRIB			1.5
IT:RM:TRB:2017:7133509	7288350	true	true	false		false	Roma	2017	TRIBUNALE	Roma	SENTENZA	CIVILE	2017-07-10		VI	Giudice Roberta Nardone		n.r.g.50718/2016	sentenza Tribunale Roma sez. VI civ. 10 luglio 2017	Tribunale  Roma, 10 luglio 2017, sez. VI		Locazione di un immobile destinato all'uso commerciale privo dell'agibilità, Riv. Condominioelocazione.it, Giuffrè, 24 GENNAIO   2018, nota di CIRLA AUGUSTO	https://dejure.it/#/ricerca/dottrine_documento?idDatabank=99&idDocMaster=7288350&idUnitaDoc=0&nVigUnitaDoc=1&docIdx=2&semantica=0&isPdf=false&isCorrelazioniSearch=false	Condominioelocazione.it	Giuffrè	GFL		#		DEJURE_NAS_TRIB			1.5
IT:RM:TRB:2017:2061899440	7289128	true	true	false		false	Roma	2017	TRIBUNALE	Latina	ORDINANZA	CIVILE	2017-10-20					R.G. 3183/2017	sentenza Tribunale Latina 20 ottobre 2017	Tribunale , Latina , 20/10/2017	https://dejure.it/#/ricerca/giurisprudenza_documento?idDatabank=6&idDocMaster=7289128&idUnitaDoc=0&nVigUnitaDoc=1&isCorrelazioniSearch=true	L’inammissibilità della querela di falso incidentale in sede cautelare, Riv. Ilprocessocivile.it, Giuffrè, 8 FEBBRAIO  2018, nota di FARINA PASQUALINA	https://dejure.it/#/ricerca/giurisprudenza_documento_giurisprudenza_commentata?idDatabank=198&idDocMaster=7290029&idUnitaDoc=0&nVigUnitaDoc=1&docIdx=1&semantica=0&isPdf=false&isCorrelazioniSearch=false	Ilprocessocivile.it	Giuffrè	GFL		#		DEJURE_COMM_TRIB			1.5
IT:RM:TRB:2016:282876919	4029	true	true	false		false	Roma	2016	TRIBUNALE	Roma	SENTENZA	LAVORO	2016-04-04	35916	4		S.P. c. T. s.r.l.	R.G. 2219/2016	sentenza Tribunale Roma sez. IV 4 aprile 2016, n. 35916	sentenza Tribunale Roma 4 aprile 2016	http://studiolegale.leggiditalia.it/#id=44MA0002569301,__m=document | https://dejure.it/#/ricerca/giurisprudenza_documento?idDatabank=6&idDocMaster=5002746&idUnitaDoc=0&nVigUnitaDoc=1&isCorrelazioniSearch=true	"Il gran ritorno del fatto giuridico nel nuovo regime a tutele crescenti, Riv. ADL Argomenti di diritto del lavoro, Wolters Kluwer Italia s.r.l., 2016, 3, 690, nota di BIASI MARCO""#""Tutele crescenti: licenziamento discriminatorio e reintegra, Riv. Ilgiuslavorista.it, Giuffrè, 10 NOVEMBRE  2016, nota di ZANI ENRICO""#""Jobs Act e licenziamento disciplinare: alla ricerca della reintegrazione tentando la strada del recesso ritorsivo o discriminatorio, Riv. Lavoro e previdenza oggi, Iuridica Edizioni Distribuzioni, 2016, 9-10, 582, nota di SALVAGNI MICHELANGELO"	http://studiolegale.leggiditalia.it/#id=10AR0000170726ART1,__m=document | https://dejure.it/#/ricerca/giurisprudenza_documento_giurisprudenza_commentata?idDatabank=198&idDocMaster=7086678&idUnitaDoc=0&nVigUnitaDoc=1&docIdx=19&semantica=0&isPdf=false&isCorrelazioniSearch=false	ADL Argomenti di diritto del lavoro#Ilgiuslavorista.it#Lavoro e previdenza oggi	Wolters Kluwer Italia s.r.l.#Giuffrè#Iuridica Edizioni Distribuzioni	WKI#GFL#altro	CONTRATTO DI LAVORO SUBORDINATO#LICENZIAMENTO INDIVIDUALE#DIRITTO DEL LAVORO IN GENERALE#GARANZIE E DISPOSIZIONE DEI DIRITTI DEI LAVORATORI	CONTRATTO DI LAVORO SUBORDINATO;LICENZIAMENTO INDIVIDUALE##LICENZIAMENTO INDIVIDUALE;DIRITTO DEL LAVORO IN GENERALE;GARANZIE E DISPOSIZIONE DEI DIRITTI DEI LAVORATORI		DoGi-WKI_NAS_TRIB-SAME_AS-DEJURE_COMM_TRIB-DoGi			1.5
IT:RM:TRB:2015:843081101	1359	true	true	false		false	Roma	2015	TRIBUNALE	Roma	SENTENZA	LAVORO	2015-09-03		spec. Impresa	dott. Francesco Mannino - Presidente dott. Stefano Cardinali - Giudice dott. Francesco Remo Scerrato - Giudice relatore	M. C. Srl	rg 46722/12	sentenza Tribunale Roma sez. spec. Impresa 3 settembre 2015, n. 3.0	sentenza Tribunale Roma sez. spec. Impresa 3 settembre 2015	http://studiolegale.leggiditalia.it/#id=44MA0002568590,__m=document	Compensi spettanti ai componenti di organi sociali: la competenza al Tribunale delle imprese, Riv. Le Società: rivista di diritto e pratica commerciale, societaria e fiscale, Wolters Kluwer Italia s.r.l., 2016, 7, 888, nota di FAINELLI FEDERICA	http://studiolegale.leggiditalia.it/#id=10AR0000169564ART1,__m=document	Le Società: rivista di diritto e pratica commerciale, societaria e fiscale	Wolters Kluwer Italia s.r.l.	WKI	COMPETENZA DEL GIUDICE CIVILE#RAPPORTI SPECIALI DI LAVORO#SOCIETÀ DI CAPITALI	COMPETENZA DEL GIUDICE CIVILE;RAPPORTI SPECIALI DI LAVORO;SOCIETÀ DI CAPITALI		DoGi-WKI_NAS_TRIB			1.5
IT:BO:TRB:2015:1223865252	1435	true	true	false		false	Bologna	2015	TRIBUNALE	Bologna	SENTENZA	CIVILE	2015-07-03	2130	4	Dott.ssa Anna Maria Drudi - Presidente Dott. Giovanni Salina - Giudice Dott. Pietro Iovino - Giudice Relatore	MARCHIO DI QUALITA' GIUSEPPE GIUSTI 1605 S.R.L., GRAN DEPOSITO ACETO BALSAMICO GIUSEPPE GIUSTI S.R.L.		sentenza Tribunale Bologna sez. IV civ. 3 luglio 2015	sentenza Tribunale Bologna sez. IV 3 luglio 2015		Decadenza parziale per non uso del marchio, Riv. Giurisprudenza commerciale, Giuffrè, 2017, 2, 391, nota di GUARDÌ DIEGO	https://dejure.it/#/ricerca/dottrine_documento?idDatabank=99&idDocMaster=5395165&idUnitaDoc=0&nVigUnitaDoc=1&docIdx=6&semantica=0&isPdf=false&isCorrelazioniSearch=false	Giurisprudenza commerciale	Giuffrè	GFL	NULLITÀ ED ESTINZIONE DEL MARCHIO#TUTELA DEL MARCHIO#MARCHIO#REQUISITI DI VALIDITÀ DEL MARCHIO	NULLITÀ ED ESTINZIONE DEL MARCHIO;TUTELA DEL MARCHIO;MARCHIO;REQUISITI DI VALIDITÀ DEL MARCHIO		DoGi-DEJURE_NAS_TRIB			1.5
IT:BO:TRB:2014:1808757545	3614	true	true	false		false	Bologna	2014	TRIBUNALE	Bologna	DECRETO	COMMERCIALE	2014-07-10		4	Dott. Maurizio Atzori - Presidente Dott. Anna Maria Rossi - Giudice rel. Dott. Manuela Velotti - Giudice	Rio Beton S.p.A.		sentenza Tribunale Bologna sez. IV 10 luglio 2014	sentenza Tribunale Bologna sez. IV 10 luglio 2014	http://studiolegale.leggiditalia.it/#id=44MA0002490470,__m=document	Sospensione cautelare del provvedimento reclamato ex art. 26 l. fall, Riv. Il Fallimento e le altre procedure concorsuali, Wolters Kluwer Italia s.r.l., 2015, 2, 199, nota di MAZZARO MARIA TERESA	http://studiolegale.leggiditalia.it/#id=10AR0000153806ART1,__m=document	Il Fallimento e le altre procedure concorsuali	Wolters Kluwer Italia s.r.l.	WKI	FALLIMENTO	FALLIMENTO		DoGi-WKI_NAS_TRIB			1.5
IT:BO:TRB:2017:1497075049	7027474	true	true	false		false	Bologna	2017	TRIBUNALE	Bologna	SENTENZA	CIVILE	2017-01-13	20018	III			n. r.g. 14446/2013	sentenza Tribunale Bologna sez. III civ. 13 gennaio 2017, n. 20018	Tribunale , Bologna , sez. III , 13/01/2017 , n. 20018	https://dejure.it/#/ricerca/giurisprudenza_documento?idDatabank=6&idDocMaster=7027474&idUnitaDoc=0&nVigUnitaDoc=1&isCorrelazioniSearch=true	Responsabili i medici che non prestano le cure palliative al malato terminale, Riv. Ridare.it, Giuffrè, 16 OTTOBRE   2017, nota di SCALERA ANTONIO	https://dejure.it/#/ricerca/giurisprudenza_documento_giurisprudenza_commentata?idDatabank=198&idDocMaster=7087162&idUnitaDoc=0&nVigUnitaDoc=1&docIdx=17&semantica=0&isPdf=false&isCorrelazioniSearch=false	Ridare.it	Giuffrè	GFL		#		DEJURE_COMM_TRIB			1.5
IT:BO:TRB:2018:2024813612	7361618	true	true	false		false	Bologna	2018	TRIBUNALE	Bologna	SENTENZA	CIVILE	2018-02-08	20123	III	Giudice dott. Anna Maria Drudi			sentenza Tribunale Bologna sez. III civ. 8 febbraio 2018, n. 20123	Tribunale , Bologna , sez. III , 08/02/2018 , n. 20123	https://dejure.it/#/ricerca/giurisprudenza_documento?idDatabank=6&idDocMaster=7361618&idUnitaDoc=0&nVigUnitaDoc=1&isCorrelazioniSearch=true	Brevi note su ISC e clausola floor nei mutui, Riv. Ilsocietario.it, Giuffrè, 7 GIUGNO    2018, nota di FIORUCCI FABIO	https://dejure.it/#/ricerca/giurisprudenza_documento_giurisprudenza_commentata?idDatabank=198&idDocMaster=7363762&idUnitaDoc=0&nVigUnitaDoc=1&docIdx=11&semantica=0&isPdf=false&isCorrelazioniSearch=false	Ilsocietario.it	Giuffrè	GFL		#		DEJURE_COMM_TRIB			1.5
IT:FI:TRB:2015:967448465	1259	true	false	false		false	Firenze	2015	TRIBUNALE	Firenze	SENTENZA	LAVORO	2015-01-16		L	Giudice Papait	S.B. c. Scaf Servizi Autocustodi Fiorentini a r.l.		sentenza Tribunale Firenze sez. lav. 16 gennaio 2015, n. 22063	sentenza Tribunale Firenze sez. lav. 16 gennaio 2015, n. 22063	http://studiolegale.leggiditalia.it/#id=44MA0002515768,__m=document	"Esclusione del socio lavoratore dipendente di cooperativa: lo ""stato dell'arte"", Riv. Giurisprudenza italiana, Wolters Kluwer Italia s.r.l., 2015, 6, 1462, nota di GAUDIO GIOVANNI""#""ESCLUSIONE DEL SOCIO LAVORATORE DIPENDENTE DI COOPERATIVA - ESCLUSIONE DEL SOCIO LAVORATORE DIPENDENTE DI COOPERATIVA: LO “STATO DELL’ARTE”, Riv. Giurisprudenza italiana, Wolters Kluwer Italia s.r.l., 2015, 6, 1461, nota di GIOVANNI GAUDIO"	http://studiolegale.leggiditalia.it/#id=10AR0000158151ART1,__m=document	Giurisprudenza italiana#Giurisprudenza italiana	Wolters Kluwer Italia s.r.l.#Wolters Kluwer Italia s.r.l.	WKI#WKI	LICENZIAMENTO INDIVIDUALE#SOCIETÀ A SCOPO MUTUALISTICO#SOCIETÀ	LICENZIAMENTO INDIVIDUALE;SOCIETÀ A SCOPO MUTUALISTICO#SOCIETA' Socio, in genere		DoGi-SAME_AS-WKI_NAS_TRIB			1.5
IT:FI:TRB:2015:644608066	1714	true	true	false		false	Firenze	2015	TRIBUNALE	Livorno	DECRETO	FALLIMENTARE	2016-04-13		fallimentare	dott. Luigi Nannipieri - Presidente dott. Gianmarco Marinai - Giudice relatore dott. Franco Pastorelli - Giudice	I.E.N.C. s.r.l.	n. r.g. 29/2015	decreto Tribunale Livorno sez. fall. 13 aprile 2016, n. 29-2015	decreto Tribunale Livorno sez. fall. 13 aprile 2016, n. 29/2015	http://studiolegale.leggiditalia.it/#id=44MA0002591070,__m=document | https://dejure.it/#/ricerca/giurisprudenza_documento?idDatabank=6&idDocMaster=5011206&idUnitaDoc=0&nVigUnitaDoc=1&isCorrelazioniSearch=true	"La falcidiabilità di IVA e degli altri tributi all'indomani della sentenza della Corte di Giustizia CE: prime esperienze applicative, Riv. Il Diritto fallimentare e delle società commerciali, Giappichelli Editore, 2016, 6, 1634, nota di DAMI FILIPPO""#""Concordato senza transazione fiscale: sì alla falcidia delle ritenute operate e non versate, Riv. Ilfallimentarista.it, Giuffrè, 30 GIUGNO    2016, nota di GALLIO FABIO, ZARA MASSIMO"	https://dejure.it/#/ricerca/giurisprudenza_documento_giurisprudenza_commentata?idDatabank=198&idDocMaster=7084592&idUnitaDoc=0&nVigUnitaDoc=1&docIdx=17&semantica=0&isPdf=false&isCorrelazioniSearch=false	Il Diritto fallimentare e delle società commerciali#Ilfallimentarista.it	Giappichelli Editore#Giuffrè	altro#GFL	CONCORDATO PREVENTIVO#CONTENZIOSO TRIBUTARIO#IMPOSTE INDIRETTE#POLITICA FISCALE COMUNITARIA	CONCORDATO PREVENTIVO;CONTENZIOSO TRIBUTARIO;IMPOSTE INDIRETTE;POLITICA FISCALE COMUNITARIA [= UNEUR.2.9.1. POLITICHE COMUNITARIE; Fiscalità]#		DoGi-SAME_AS-WKI_NAS_TRIB-DEJURE_COMM_TRIB			1.5
IT:MI:TRB:2017:1713414600	5390818	true	true	false		false	Milano	2017	TRIBUNALE	Milano	DECRETO	CIVILE	2017-06-15			Giudice dott. Silvia Giani	SONY MUSIC ENTERTAINMENT ITALY SPA	r.g. 29032/2017	decreto Tribunale Milano 15 giugno 2017	Tribunale , Milano , Sez. spec. Impresa , 15/06/2017	https://dejure.it/#/ricerca/giurisprudenza_documento?idDatabank=6&idDocMaster=5390818&idUnitaDoc=0&nVigUnitaDoc=1&isCorrelazioniSearch=true	L’interpretazione del valore artistico dell’industrial design, Riv. Ilsocietario.it, Giuffrè, 26 LUGLIO    2017, nota di FITTANTE ALDO	https://dejure.it/#/ricerca/giurisprudenza_documento_giurisprudenza_commentata?idDatabank=198&idDocMaster=7082955&idUnitaDoc=0&nVigUnitaDoc=1&docIdx=18&semantica=0&isPdf=false&isCorrelazioniSearch=false	Ilsocietario.it	Giuffrè	GFL		#		DEJURE_COMM_TRIB			1.5
IT:FI:TRB:2017:1959810710	3939	true	false	false		false	Firenze	2017	TRIBUNALE	Grosseto	DECRETO	COMMERCIALE	2017-03-14	16964				N.22/14 R.C.P.	decreto Tribunale Grosseto 14 marzo 2017, n. 16964	decreto Tribunale Grosseto 14 marzo 2017, n. 16964	http://studiolegale.leggiditalia.it/#id=44MA0002621578,__m=document	La pubblicazione della domanda di concordato preventivo nel registro delle imprese, Riv. Il Fallimento e le altre procedure concorsuali, Wolters Kluwer Italia s.r.l., 2017, 8-9, 955, nota di BROGI RAFFAELLA	http://studiolegale.leggiditalia.it/#id=10AR0000182785ART1,__m=document	Il Fallimento e le altre procedure concorsuali	Wolters Kluwer Italia s.r.l.	WKI	CONCORDATO PREVENTIVO#SOCIETÀ DI CAPITALI	CONCORDATO PREVENTIVO;SOCIETÀ DI CAPITALI		DoGi-WKI_NAS_TRIB			1.5
IT:FI:CPP:2014:1779379527	4091413	true	true	false		false	Firenze	2014	CORTE APPELLO	Firenze	SENTENZA	FALLIMENTARE	2014-02-18	262	fallimentare		FLORENCE SPORTSWEAR S.R.L. in liquidazione		sentenza Corte Appello Firenze sez. fall. 18 febbraio 2014, n. 262	Corte appello , Firenze , sez. fallimentare , 18/02/2014 , n. 262	https://dejure.it/#/ricerca/giurisprudenza_documento?idDatabank=6&idDocMaster=4091413&idUnitaDoc=0&nVigUnitaDoc=1&isCorrelazioniSearch=true	Controllo giudiziale sulla fattibilità giuridica e integrazioni della proposta di concordato, Riv. Ilfallimentarista.it, Giuffrè, 25 LUGLIO    2014, nota di IUCCI ALESSANDRO	https://dejure.it/#/ricerca/giurisprudenza_documento_giurisprudenza_commentata?idDatabank=198&idDocMaster=7084351&idUnitaDoc=0&nVigUnitaDoc=1&docIdx=0&semantica=0&isPdf=false&isCorrelazioniSearch=false	Ilfallimentarista.it	Giuffrè	GFL		#		DEJURE_COMM_APP			1.5
IT:NA:TRB:2018:788365559	4219	true	true	false		false	Napoli	2018	TRIBUNALE	Napoli	SENTENZA	LAVORO	2018-03-21		L	dr.ssa Giovanna Picciotti Presidente dr.ssa Mariarosaria Palumbo Giudice dr. Diego Vargas Giudice rel.	Telecom Italia S.p.A., SLC CGIL Napoli e SLC CGIL Campania e altri	n. 1600/2018 R.G. e 2/2018 Ruolo Reclami	sentenza Tribunale Napoli sez. lav. 21 marzo 2018	sentenza Tribunale Napoli sez. lav. 21 marzo 2018		RSU e vincolo associativo: la giurisprudenza di merito successiva al T.U. del 2014, Riv. GiustiziaCivile.com, Giuffrè, 2018-06-00, nota di NEGRI GIULIA	https://dejure.it/#/ricerca/giurisprudenza_documento_giurisprudenza_commentata?idDatabank=198&idDocMaster=7362181&idUnitaDoc=0&nVigUnitaDoc=1&docIdx=9&semantica=0&isPdf=false&isCorrelazioniSearch=false	GiustiziaCivile.com	Giuffrè	GFL	ORGANIZZAZIONI PROFESSIONALI#SINDACATO	ORGANIZZAZIONI PROFESSIONALI;SINDACATO		DoGi			1.5
IT:NA:CPP:2018:1584935791	7460221	true	true	false		false	Napoli	2018	CORTE APPELLO	Napoli	SENTENZA	CIVILE	2018-07-04	145	sezione per i minorenni	DOTT. ALESSANDRO COCCHIARA PRESIDENTE DOTT. ANTONIO DI MARCO CONSIGLIERE DOTT. GEREMIA CASABURI CONSIGLIERE REL. DOTT. GERARDA MOLINARO COMPONENTE PRIVATO DOTT. GIULIO FORMATI COMPONENTE PRIVATO			sentenza Corte Appello Napoli sezione per i minorenni civ. 4 luglio 2018, n. 145	Corte appello , Napoli , 04/07/2018 , n. 145	https://dejure.it/#/ricerca/giurisprudenza_documento?idDatabank=6&idDocMaster=7460221&idUnitaDoc=0&nVigUnitaDoc=1&isCorrelazioniSearch=true	Famiglie arcobaleno: anche la mamma non biologica è genitore sin dalla nascita, Riv. Ilfamiliarista.it, Giuffrè, 8 OTTOBRE   2018, nota di PARISI IDA	https://dejure.it/#/ricerca/giurisprudenza_documento_giurisprudenza_commentata?idDatabank=198&idDocMaster=7606714&idUnitaDoc=0&nVigUnitaDoc=1&docIdx=4&semantica=0&isPdf=false&isCorrelazioniSearch=false	Ilfamiliarista.it	Giuffrè	GFL		#		DEJURE_COMM_APP			1.5
IT:NA:TRB:2018:1507307153	7320966	true	true	false		false	Napoli	2018	TRIBUNALE	Napoli Nord	SENTENZA	CIVILE	2018-01-13		III	Giudice dell’esecuzione, dott. Alessandro Auletta		n. 1970/2017	sentenza Tribunale Napoli Nord sez. III civ. 13 gennaio 2018	Tribunale , Napoli Nord , sez. III , 13/01/2018	https://dejure.it/#/ricerca/giurisprudenza_documento?idDatabank=6&idDocMaster=7320966&idUnitaDoc=0&nVigUnitaDoc=1&isCorrelazioniSearch=true	Esecuzione forzata e vincolo di destinazione sulle somme presenti sul conto di tesoreria dell’ente locale, Riv. Ilprocessocivile.it, Giuffrè, 16 APRILE    2018, nota di LAUROPOLI GIUSEPPE	https://dejure.it/#/ricerca/giurisprudenza_documento_giurisprudenza_commentata?idDatabank=198&idDocMaster=7324163&idUnitaDoc=0&nVigUnitaDoc=1&docIdx=5&semantica=0&isPdf=false&isCorrelazioniSearch=false	Ilprocessocivile.it	Giuffrè	GFL		#		DEJURE_COMM_TRIB			1.5
IT:NA:TRB:2016:918049351	2069	true	false	false		false	Napoli	2016	TRIBUNALE	Napoli	ORDINANZA	LAVORO	2016-12-15	49285	L				sentenza Tribunale Napoli sez. lav. 15 dicembre 2016, n. 49285	sentenza Tribunale Napoli Nord sez. lav. 15 dicembre 2016, n. 49285	http://studiolegale.leggiditalia.it/#id=44MA0002622008,__m=document	Sulla nullità del licenziamento del marito: un altro passo verso la bigenitorialità, Riv. Giurisprudenza italiana, Wolters Kluwer Italia s.r.l., 2017, 7, 1655, nota di MARTONE MICHEL	http://studiolegale.leggiditalia.it/#id=10AR0000183610ART1,__m=document	Giurisprudenza italiana	Wolters Kluwer Italia s.r.l.	WKI	LICENZIAMENTO INDIVIDUALE#TUTELA DELLA MATERNITÀ	LICENZIAMENTO INDIVIDUALE;TUTELA DELLA MATERNITÀ		DoGi-WKI_NAS_TRIB			1.5
IT:NA:TRB:2016:470757786	3639	true	true	false		false	Napoli	2016	TRIBUNALE	Napoli	ORDINANZA	CIVILE	2016-07-14		7	Dott. Lucio Di Nosse - Presidente Dott. Stanislao De Matteis - Giudice Dott. Angelo Napolitano - Giudice rel. est.	E.D. e altri c. M.S.	n. 11975/2016 R.G	ordinanza Tribunale Napoli sez. VII civ. 14 luglio 2016	ord. Tribunale Napoli 14 luglio 2016	http://studiolegale.leggiditalia.it/#id=44MA0002584858,__m=document	"E' la politica, bellezza!, Riv. La Nuova giurisprudenza civile commentata, Wolters Kluwer Italia s.r.l., 2016, 10, 1342, nota di DE GIORGI MARIA VITA""#""Il giudice civile e l'ordinamento interno dei partiti politici: alcune considerazioni sulle recenti ordinanze dei tribunali di Napoli e di Roma, Riv. Osservatorio sulle fonti, Osservatoriosullefonti.it, 2016, 3, 19, nota di CATERINA EDOARDO""#""Le espulsioni dal MoVimento 5 stelle davanti al giudice civile, Riv. Quaderni costituzionali, Il Mulino, 2016, 4, 793, nota di CATERINA EDOARDO""#""PARTITI POLITICI - «È LA POLITICA, BELLEZZA!», Riv. La Nuova giurisprudenza civile commentata, Wolters Kluwer Italia s.r.l., 2016, 10, 1337, nota di MARIA VITA DE GIORGI"	http://studiolegale.leggiditalia.it/#id=10AR0000173833ART1,__m=document	La Nuova giurisprudenza civile commentata#Osservatorio sulle fonti#Quaderni costituzionali#La Nuova giurisprudenza civile commentata	Wolters Kluwer Italia s.r.l.#Osservatoriosullefonti.it#Il Mulino#Wolters Kluwer Italia s.r.l.	WKI#altro#altro#WKI	PERSONE GIURIDICHE PRIVATE#PARTITI E MOVIMENTI POLITICI#GIUDICE CIVILE#COMPETENZA DEL GIUDICE CIVILE#PARTITI POLITICI	PERSONE GIURIDICHE PRIVATE#PARTITI E MOVIMENTI POLITICI;GIUDICE CIVILE;PERSONE GIURIDICHE PRIVATE#PARTITI E MOVIMENTI POLITICI;COMPETENZA DEL GIUDICE CIVILE#PARTITI POLITICI		DoGi-SAME_AS-DoGi-WKI_NAS_TRIB			1.5
IT:NA:TRB:2016:587692081	2345	true	false	false		false	Napoli	2016	TRIBUNALE	Napoli	ORDINANZA	CIVILE	2016-03-24		spec. Impresa	Est. Rustichelli.		ricorso R.G. n. 27552/2015 riunito con R.G. n. 33420/2015,	ordinanza Tribunale Napoli sez. spec. Impresa 24 marzo 2016	sentenza Tribunale Napoli civ. 24 marzo 2016	http://www.ilcaso.it/giurisprudenza/archivio/14712.pdf	"Il recesso del socio di banca cooperativa tra fonti normative nazionali ed europee: una questione aperta, Rivista di diritto societario, Giappichelli Editore, 2017, 2, 489, nota di BRIZZI FRANCESCO""#""Il recesso del socio nelle banche cooperative, Riv. La Nuova giurisprudenza civile commentata, Wolters Kluwer Italia s.r.l., 2016, 11, 1502, nota di GINEVRI SACCO ANDREA""#""Limiti al rimborso delle azioni per i soci di banche in caso di recesso: una prima pronuncia, Riv. Il Nuovo Diritto delle Società, ItaliaOggi Editori - Erinne, 2016, 7, 84, nota di POLLASTRO IRENE""#""Trasformazione di banca popolare, recesso e limiti al rimborso delle azioni: il d.l. n. 3/2015 di fronte alla giustizia civile, amministrativa e costituzionale, Riv. Banca borsa e titoli di credito, Giuffrè, 2017, 2, 190, nota di ROMANO GIOVANNI""#""Una decisione in tema di limitazione del diritto di rimborso delle azioni di banche popolari, Riv. Giurisprudenza commerciale, Giuffrè, 2017, 4, 735, nota di SALERNO FRANCESCO"	https://dejure.it/#/ricerca/dottrine_documento?idDatabank=99&idDocMaster=5349858&idUnitaDoc=0&nVigUnitaDoc=1&docIdx=18&semantica=0&isPdf=false&isCorrelazioniSearch=false	Rivista di diritto societario#La Nuova giurisprudenza civile commentata#Il Nuovo Diritto delle Società#Banca borsa e titoli di credito#Giurisprudenza commerciale	Giappichelli Editore#Wolters Kluwer Italia s.r.l.#ItaliaOggi Editori - Erinne#Giuffrè#Giuffrè	altro#WKI#altro#GFL#GFL	DIRITTO AMMINISTRATIVO IN GENERALE#DISCIPLINA DEL CREDITO E DEL MERCATO DEI CAPITALI#SOCIETÀ DI CAPITALI#SOCIETÀ A SCOPO MUTUALISTICO#INTERMEDIARI FINANZIARI#TRASFORMAZIONE DELLA SOCIETÀ	DIRITTO AMMINISTRATIVO IN GENERALE;DISCIPLINA DEL CREDITO E DEL MERCATO DEI CAPITALI;SOCIETÀ DI CAPITALI#DISCIPLINA DEL CREDITO E DEL MERCATO DEI CAPITALI;SOCIETÀ A SCOPO MUTUALISTICO#INTERMEDIARI FINANZIARI;SOCIETÀ DI CAPITALI;DISCIPLINA DEL CREDITO E DEL MERCATO DEI CAPITALI#DISCIPLINA DEL CREDITO E DEL MERCATO DEI CAPITALI;TRASFORMAZIONE DELLA SOCIETÀ;SOCIETÀ DI CAPITALI#DISCIPLINA DEL CREDITO E DEL MERCATO DEI CAPITALI;SOCIETÀ A SCOPO MUTUALISTICO		DoGi-SAME_AS-DoGi-DoGi-DoGi			1.5
IT:NA:CPP:2015:636090255	4621288	true	true	false		false	Napoli	2015	CORTE APPELLO	Napoli	SENTENZA	CIVILE	2015-05-06	2035	IV	dr. Paolo Celentano Presidente - Relatore dr. Andrea Luce Consigliere dr. Vito Riccardo Cervelli Consigliere			sentenza Corte Appello Napoli sez. IV civ. 6 maggio 2015, n. 2035	Corte appello , Napoli , sez. IV , 06/05/2015 , n. 2035	https://dejure.it/#/ricerca/giurisprudenza_documento?idDatabank=6&idDocMaster=4621288&idUnitaDoc=0&nVigUnitaDoc=1&isCorrelazioniSearch=true	Legittimazione passiva di Regioni e Gestioni liquidatorie delle Usl per i fatti antecedenti l’1 gennaio 1995, Riv. Ridare.it, Giuffrè, 27 OTTOBRE   2015, nota di FEDELI RENATO	https://dejure.it/#/ricerca/giurisprudenza_documento_giurisprudenza_commentata?idDatabank=198&idDocMaster=7082475&idUnitaDoc=0&nVigUnitaDoc=1&docIdx=13&semantica=0&isPdf=false&isCorrelazioniSearch=false	Ridare.it	Giuffrè	GFL		#		DEJURE_COMM_APP			1.5
IT:FI:TRB:2014:1994917518	4183605	true	true	false		false	Firenze	2014	TRIBUNALE	Prato	DECRETO	CIVILE	2014-01-20					procedimento di concordato preventivo iscritto al n. r.g. 59/2013	decreto Tribunale Prato 20 gennaio 2014, n. 59	Tribunale , Prato , 20/01/2014 , n. 59	https://dejure.it/#/ricerca/giurisprudenza_documento?idDatabank=6&idDocMaster=4183605&idUnitaDoc=0&nVigUnitaDoc=1&isCorrelazioniSearch=true	Rapporti tra concordato in bianco e scioglimento dei contratti in corso di esecuzione, Riv. Ilfallimentarista.it, Giuffrè, 8 LUGLIO    2014, nota di PALLADINO VINCENZO	https://dejure.it/#/ricerca/giurisprudenza_documento_giurisprudenza_commentata?idDatabank=198&idDocMaster=7084359&idUnitaDoc=0&nVigUnitaDoc=1&docIdx=0&semantica=0&isPdf=false&isCorrelazioniSearch=false	Ilfallimentarista.it	Giuffrè	GFL		#		DEJURE_COMM_TRIB			1.5
IT:AN:TRB:2015:694506736	3534	true	false	false		false	Ancona	2015	TRIBUNALE	Ancona	DECRETO	COMMERCIALE	2015-04-09		2	Giudici: Dott.ssa FRANCESCA MICONI - Presidente Dott.ssa FRANCESCA ERCOLINI - Giudice Dott. SIMONE ROMITO - Giudice rel.			sentenza Tribunale Ancona sez. II 9 aprile 2015, n. 1957	sentenza  Tribunale Ancona 9 aprile 2015, n. 1957	http://studiolegale.leggiditalia.it/#id=44MA0002548252+44MA0002548264,__m=document	L'attuazione di concordato preventivo in parziale continuità mediante scissione societaria, Riv. Il Fallimento e le altre procedure concorsuali, Wolters Kluwer Italia s.r.l., 2016, 3, 353, nota di CAVANNA MAURIZIO	http://studiolegale.leggiditalia.it/#id=10AR0000164706ART1,__m=document	Il Fallimento e le altre procedure concorsuali	Wolters Kluwer Italia s.r.l.	WKI	SCISSIONE E SCORPORAZIONE DI SOCIETÀ#CONCORDATO PREVENTIVO	SCISSIONE E SCORPORAZIONE DI SOCIETÀ;CONCORDATO PREVENTIVO		DoGi-WKI_NAS_TRIB			1.5
IT:BA:TRB:2018:684060302	7609734	true	true	false		false	Bari	2018	TRIBUNALE	Bari	SENTENZA	CIVILE	2018-03-17		II			n. 163/2017-1 R.G.E.	sentenza Tribunale Bari sez. II civ. 17 marzo 2018	Tribunale  Bari, 17 marzo 2018, sez. II		Brevi note sull'accertamento dell'interesse di mora nel superamento del tasso soglia., Riv. Banca borsa e titoli di credito, Giuffrè, 2018, nota di FAUCEGLIA GIOVANNI BATTISTA	https://dejure.it/#/ricerca/dottrine_documento?idDatabank=99&idDocMaster=7609734&idUnitaDoc=0&nVigUnitaDoc=1&docIdx=4&semantica=0&isPdf=false&isCorrelazioniSearch=false	Banca borsa e titoli di credito	Giuffrè	GFL	INTERESSI	"INTERESSI"" | ""INTERESSI"" "		DEJURE_NAS_TRIB			1.5
IT:BA:TRB:2017:1410611555	2975	true	true	false		false	Bari	2017	TRIBUNALE	Bari	SENTENZA	LAVORO	2017-05-30		L	GIUDICE DESIGNATO Dott.ssa Angela Vernia	LP., INPS	n.r.g. 4421/2017	sentenza Tribunale Bari sez. lav. 30 maggio 2017	sentenza Tribunale Bari 30 maggio 2017	https://dejure.it/#/ricerca/giurisprudenza_documento?idDatabank=6&idDocMaster=5658672&idUnitaDoc=0&nVigUnitaDoc=1&isCorrelazioniSearch=true	"Il congedo straordinario per assistere disabili: estensioni soggettive e possibili abusi, Rivista italiana di diritto del lavoro, Giuffrè, 2017, 4, 657, nota di BUOSO STEFANIA""#""Congedo straordinario per assistenza disabile e abuso del diritto, Riv. Ilgiuslavorista.it, Giuffrè, 22 AGOSTO    2017, nota di GUARINI GIOVANNI"	https://dejure.it/#/ricerca/dottrine_documento?idDatabank=99&idDocMaster=7098042&idUnitaDoc=0&nVigUnitaDoc=1&docIdx=6&semantica=0&isPdf=false&isCorrelazioniSearch=false | https://dejure.it/#/ricerca/giurisprudenza_documento_giurisprudenza_commentata?idDatabank=198&idDocMaster=7086630&idUnitaDoc=0&nVigUnitaDoc=1&docIdx=8&semantica=0&isPdf=false&isCorrelazioniSearch=false	Rivista italiana di diritto del lavoro#Ilgiuslavorista.it	Giuffrè#Giuffrè	GFL#GFL	ORARIO DI LAVORO	ORARIO DI LAVORO#		DoGi-DEJURE_NAS_TRIB-SAME_AS-DEJURE_COMM_TRIB			1.5
IT:BA:CPP:2016:1152919467	6306950	true	true	false		false	Bari	2016	CORTE APPELLO	Bari	DECRETO	CIVILE	2016-12-16		famiglia	dott. Giancarlo Pecoriello Presidente; dott. Luciano Guaglione Consigliere ; dott. ssa Giuseppina Dinisi G.A. relatore		886/2016 R.G.V.G.	decreto Corte Appello Bari sez. famiglia 16 dicembre 2016	Corte appello  Bari, 16 dicembre 2016, sez. famiglia		Bigenitorialità e unitarietà della famiglia: i fratelli devono restare insieme, Riv. Ilfamiliarista.it, Giuffrè, 19 LUGLIO    2017, nota di MINOLFI ELOISIA	https://dejure.it/#/ricerca/dottrine_documento?idDatabank=99&idDocMaster=6306950&idUnitaDoc=0&nVigUnitaDoc=1&docIdx=1&semantica=0&isPdf=false&isCorrelazioniSearch=false	Ilfamiliarista.it	Giuffrè	GFL	SEPARAZIONE DEI CONIUGI	"SEPARAZIONE DEI CONIUGI"" "		DEJURE_NAS_APP			1.5
IT:BA:TRB:2016:1644304336	1702	true	true	false		false	Bari	2016	TRIBUNALE	Bari	ORDINANZA	LAVORO	2016-12-06	9380					sentenza Tribunale Bari 6 dicembre 2016, n. 9380	sentenza Tribunale Bari 6 dicembre 2016, n. 9380		"La carenza di potere disciplinare per violazione del ""ne bis in idem"" e a seguito di conciliazione sindacale come ipotesi di insussistenza del fatto contestato, Rivista italiana di diritto del lavoro, Giuffrè, 2017, 2, 295, nota di SPEZIALE VALERIO"	https://dejure.it/#/ricerca/dottrine_documento?idDatabank=99&idDocMaster=5940076&idUnitaDoc=0&nVigUnitaDoc=1&docIdx=19&semantica=0&isPdf=false&isCorrelazioniSearch=false	Rivista italiana di diritto del lavoro	Giuffrè	GFL	LICENZIAMENTO INDIVIDUALE#GIUDICATO#RISOLUZIONE STRAGIUDIZIALE DELLE CONTROVERSIE DI LAVORO	LICENZIAMENTO INDIVIDUALE;GIUDICATO;RISOLUZIONE STRAGIUDIZIALE DELLE CONTROVERSIE DI LAVORO		DoGi-DEJURE_NAS_TRIB			1.5
IT:CB:TRB:2017:1710502361	1270	true	false	false		false	Campobasso	2017	TRIBUNALE	Larino	SENTENZA	CIVILE	2017-08-09	398			B.M. c. C.A. e altri	n. 249/2014 RGAC	sentenza Tribunale Larino 9 agosto 2017, n. 398	sentenza Tribunale Larino 9 agosto 2017, n. 398	http://studiolegale.leggiditalia.it/#id=44MA0002678049,__m=document	La prova dell'addebito tra violazione del dovere di fedeltà e tutela del diritto alla riservatezza, Riv. Famiglia e diritto, Wolters Kluwer Italia s.r.l., 2018, 10, 65535, nota di NITTI MARIALUISA	http://studiolegale.leggiditalia.it/#id=10AR0000215475ART1,__m=document	Famiglia e diritto	Wolters Kluwer Italia s.r.l.	WKI	SEPARAZIONE PERSONALE DEI CONIUGI#TRATTAMENTO DEI DATI PERSONALI E TUTELA DELLA RISERVATEZZA (PRIVACY)#PROVE NEL PROCESSO CIVILE	SEPARAZIONE PERSONALE DEI CONIUGI;TRATTAMENTO DEI DATI PERSONALI E TUTELA DELLA RISERVATEZZA (PRIVACY);PROVE NEL PROCESSO CIVILE		DoGi-WKI_NAS_TRIB			1.5
IT:CT:CPP:2018:1906933741	7688607	true	true	false		false	Catania	2018	CORTE APPELLO	Catania	SENTENZA	CIVILE	2018-09-06			Giudice Carlà	N.C. contro C.G., S.G. e I.G.G., nella qualità di eredi di F.G.		sentenza Corte Appello Catania 6 settembre 2018	Corte appello , Catania , 06/09/2018	https://dejure.it/#/ricerca/giurisprudenza_documento?idDatabank=6&idDocMaster=7688607&idUnitaDoc=0&nVigUnitaDoc=1&isCorrelazioniSearch=true	L'impugnazione della sentenza va proposta anche nei confronti del difensore distrattario?, Riv. Ilprocessocivile.it, Giuffrè, 18 DICEMBRE  2018, nota di TARASCHI CESARE	https://dejure.it/#/ricerca/giurisprudenza_documento_giurisprudenza_commentata?idDatabank=198&idDocMaster=7720494&idUnitaDoc=0&nVigUnitaDoc=1&docIdx=1&semantica=0&isPdf=false&isCorrelazioniSearch=false	Ilprocessocivile.it	Giuffrè	GFL		#		DEJURE_COMM_APP			1.5
IT:LE:CSS:2017:1196415241	7719734	true	true	false		false	Lecce	2017	CORTE APPELLO	Lecce	SENTENZA	PENALE	2017-07-13	2				4026/2009 RGNR	Corte assise Lecce, 13 luglio 2017, n.2	Corte assise Lecce, 13 luglio 2017, n.2		BENE GIURIDICO E CORRETTA DEFINIZIONE DELLE FATTISPECIE. SUI RAPPORTI TRA RIDUZIONE IN SCHIAVITÙ E INTERMEDIAZIONE ILLECITA E SFRUTTAMENTO DEL LAVORO - Definition of Offences through the Social Value Protected. On the Relation Between the Felonies of Slavery and Illicit Recruitment of Workers, Riv. Cassazione penale, Giuffrè, 2018, nota di DE RUBEIS ANNARITA	https://dejure.it/#/ricerca/dottrine_documento?idDatabank=99&idDocMaster=7719734&idUnitaDoc=0&nVigUnitaDoc=1&docIdx=0&semantica=0&isPdf=false&isCorrelazioniSearch=false	Cassazione penale	Giuffrè	GFL	LAVORO SUBORDINATO, PREVIDENZA E INFORTUNISTICA (Reati in materia di)	"LAVORO SUBORDINATO, PREVIDENZA E INFORTUNISTICA (Reati in materia di)"" | ""LAVORO SUBORDINATO, PREVIDENZA E INFORTUNISTICA (Reati in materia di)"" "		DEJURE_NAS_APP			1.5
IT:PG:TRB:2014:1677644944	1350	true	false	false		false	Perugia	2014	TRIBUNALE	Perugia	ORDINANZA	PENALE	2015-07-20					n. r.g. 7647/2014	ordinanza Tribunale Perugia 20 luglio 2015, n. 7647-2014	ord. Tribunale Perugia 20 luglio 2015, n. 7647/2014	http://studiolegale.leggiditalia.it/#id=44MA0002540180,__m=document	"L'""autonoma valutazione"" nella motivazione delle ordinanze ""de libertate"", Riv. Diritto penale e processo, Wolters Kluwer Italia s.r.l., 2015, 12, 1523, nota di TONINELLI CAMILLA"		Diritto penale e processo	Wolters Kluwer Italia s.r.l.	WKI	MISURE CAUTELARI PERSONALI#IMPUGNAZIONE DEI PROVVEDIMENTI CAUTELARI#SENTENZA	MISURE CAUTELARI PERSONALI;IMPUGNAZIONE DEI PROVVEDIMENTI CAUTELARI;SENTENZA		DoGi-SAME_AS-WKI_NAS_TRIB			1.5
IT:RC:TRB:2017:1866634613	7461275	true	true	false		false	Reggio Calabria	2017	TRIBUNALE	Cosenza	SENTENZA	PENALE	2017-06-05	133		dott. Francesco Luigi Branda			sentenza Tribunale Cosenza 5 giugno 2017	Tribunale  Cosenza, 05 giugno 2017		L'importanza del momento valutativo della prova nel processo in cui è vittima un minore, Riv. Ilfamiliarista.it, Giuffrè, 25 GIUGNO    2018, nota di TRIBISONNA FRANCESCA	https://dejure.it/#/ricerca/dottrine_documento?idDatabank=99&idDocMaster=7461275&idUnitaDoc=0&nVigUnitaDoc=1&docIdx=4&semantica=0&isPdf=false&isCorrelazioniSearch=false	Ilfamiliarista.it	Giuffrè	GFL	PROVA PER IL GIUDIZIO PENALE	"PROVA PER IL GIUDIZIO PENALE"" "		DEJURE_NAS_TRIB			1.5
IT:TA:TRB:2017:1751513495	2665	true	false	false		false	Taranto	2017	TRIBUNALE	Taranto	SENTENZA	PENALE	2017-05-08	378	2				sentenza Tribunale Taranto 8 maggio 2017, n. 378	sentenza Tribunale Taranto 8 maggio 2017, n. 378		"La responsabilità penale sanitaria nel passaggio dalla Legge Balduzzi alla Legge Gelli: ""se vogliamo che tutto rimanga com'è, bisogna che tutto cambi"", Rivista penale, La Tribuna, 2017, 10, 885, nota di GARZONE FRANCESCO PAOLO, NOCCO BIANCA AMELIA"		Rivista penale	La Tribuna	altro	PROFESSIONI ED ARTI SANITARIE#DELITTI CONTRO LA VITA E L'INCOLUMITÀ INDIVIDUALE#OFFESA AL BENE GIURIDICO	PROFESSIONI ED ARTI SANITARIE;DELITTI CONTRO LA VITA E L'INCOLUMITÀ INDIVIDUALE;OFFESA AL BENE GIURIDICO		DoGi			1.5
IT:TO:TRB:2018:295862791	7452744	true	true	false		false	Torino	2018	TRIBUNALE	Verbania	SENTENZA	PENALE	2018-02-08	600					sentenza Tribunale Verbania 8 febbraio 2018, n. 600	Tribunale  Verbania, 08 febbraio 2018, n.600		Il Trust e lo scambio di posizioni dei beneficiari: aspetti di diritto penale-tributario., Rivista Giuridica dell'Edilizia, Giuffrè, 2018, nota di PENNAROLA CARLO	https://dejure.it/#/ricerca/dottrine_documento?idDatabank=99&idDocMaster=7452744&idUnitaDoc=0&nVigUnitaDoc=1&docIdx=3&semantica=0&isPdf=false&isCorrelazioniSearch=false	Rivista Giuridica dell'Edilizia	Giuffrè	GFL	IMPOSTA REDDITO PERSONE FISICHE (I.R.P.E.F.)	"IMPOSTA REDDITO PERSONE FISICHE (I.R.P.E.F.)"" | ""IMPOSTA REDDITO PERSONE FISICHE (I.R.P.E.F.)"" | ""IMPOSTA REDDITO PERSONE FISICHE (I.R.P.E.F.)"" "		DEJURE_NAS_TRIB			1.5
IT:TO:TRB:2017:1229286118	6311475	true	true	false		false	Torino	2017	TRIBUNALE	Torino	SENTENZA	CIVILE	2017-01-18		III	Giudice dott. Giacomo Oberto		n. r.g. 18430/16	sentenza Tribunale Torino sez. III civ. 18 gennaio 2017	Tribunale  Torino, 18 gennaio 2017, sez. III		Costa caro non rispondere all'invito alla negoziazione assistita, Riv. Ilprocessocivile.it, Giuffrè, 7 GIUGNO    2017, nota di DI MARZIO MAURO	https://dejure.it/#/ricerca/dottrine_documento?idDatabank=99&idDocMaster=6311475&idUnitaDoc=0&nVigUnitaDoc=1&docIdx=12&semantica=0&isPdf=false&isCorrelazioniSearch=false	Ilprocessocivile.it	Giuffrè	GFL	SPESE GIUDIZIALI IN MATERIA CIVILE	"SPESE GIUDIZIALI IN MATERIA CIVILE"" "		DEJURE_NAS_TRIB			1.5
IT:TO:TRB:2017:1505025024	7237283	true	true	false		false	Torino	2017	TRIBUNALE	Torino	SENTENZA	CIVILE	2017-02-10				MEDICS S.r.l.	r.g. 12496/2016	sentenza Tribunale Torino 10 febbraio 2017	Tribunale  Torino, 10 febbraio 2017		Innovatività dell'oggetto sociale di start-up innovativa e controlli del Registro delle imprese., Riv. Banca borsa e titoli di credito, Giuffrè, 2018, nota di CORSO SILVIA	https://dejure.it/#/ricerca/dottrine_documento?idDatabank=99&idDocMaster=7237283&idUnitaDoc=0&nVigUnitaDoc=1&docIdx=3&semantica=0&isPdf=false&isCorrelazioniSearch=false	Banca borsa e titoli di credito	Giuffrè	GFL	IMPRESA E IMPRENDITORE	"IMPRESA E IMPRENDITORE"" "		DEJURE_NAS_TRIB			1.5
IT:TN:CPP:2017:782923518	2317	true	true	false		false	Trento	2017	CORTE APPELLO	Trento	ORDINANZA	CIVILE	2017-02-23		1	GIUDICI: DOTT. MARIA GRAZIA ZATTONI PRESIDENTE REL. DOTT. LAURA PAOLUCCI CONSIGLIERE DOTT. ANNA LUISA TERZI CONSIGLIERE			ordinanza Corte Appello Trento sez. I civ. 23 febbraio 2017	ord. Corte Appello Trento 23 febbraio 2017	http://studiolegale.leggiditalia.it/#id=44MA0002621549,__m=document | http://studiolegale.leggiditalia.it/#id=44MA0002595130,__m=document	"(In tema di riconoscimento della genitorialità omosessuale), Riv. Il Foro italiano, Il Foro Italiano, 2017, 3, 1060, nota di CASABURI G.""#""Omogenitorialità: la giurisprudenza italiana si apre all'Europa e al mondo, Riv. Giurisprudenza italiana, Wolters Kluwer Italia s.r.l., 2017, 11, 2368, nota di DIURNI AMALIA""#""Modi di costituzione del rapporto di filiazione e ordine pubblico internazionale, Riv. La Nuova giurisprudenza civile commentata, Wolters Kluwer Italia s.r.l., 2017, 7-8, 986, nota di CALDERAI VALENTINA""#""""Status filiationis"" e assenza di legame genetico. La Corte d'Appello di Trento riconosce la validità del certificato di nascita di due gemelli nati in seguito al ricorso alla maternità surrogata da parte di due uomini, Riv. Osservatorio costituzionale, Associazione Italiana dei Costituzionalisti, 2017, 2, 14, nota di PARUZZO FRANCESCA""#""RICONOSCIMENTO DELLO STATUS DI FIGLIO: ORDINE PUBBLICO E INTERESSE DEL MINORE, Riv. Corriere giuridico, Wolters Kluwer Italia s.r.l., 2017, 7, 935, nota di GILDA FERRANDO""#""RICONOSCIMENTO DI STATUS FAMILIARI E ORDINE PUBBLICO: IL DIFFICILE BILANCIAMENTO TRA TUTELA DELL’IDENTITÀ NAZIONALE E PROTEZIONE DEL PREMINENTE INTERESSE DEL MINORE, Riv. Corriere giuridico, Wolters Kluwer Italia s.r.l., 2017, 7, 935, nota di CHIARA ENRICA TUO""#""Co-genitorialità ""same sex"" e minori nati con maternità surrogata, Riv. Famiglia e diritto, Wolters Kluwer Italia s.r.l., 2017, 7, 674, nota di BARUFFI MARIA CATERINA""#""Riconoscimento in Italia del parental judgment costitutivo del legame di filiazione tra due bambini e il padre non genetico, Riv. Ilfamiliarista.it, Giuffrè, 26 MAGGIO    2017, nota di CARDACI GIACOMO"	http://studiolegale.leggiditalia.it/#id=10AR0000186979ART1,__m=document | http://studiolegale.leggiditalia.it/#id=10AR0000182806ART1,__m=document | http://studiolegale.leggiditalia.it/#id=10AR0000182806ART2,__m=document | http://studiolegale.leggiditalia.it/#id=10AR0000181534ART1,__m=document | https://dejure.it/#/ricerca/dottrine_documento?idDatabank=99&idDocMaster=6307178&idUnitaDoc=0&nVigUnitaDoc=1&docIdx=5&semantica=0&isPdf=false&isCorrelazioniSearch=false	Il Foro italiano#Giurisprudenza italiana#La Nuova giurisprudenza civile commentata#Osservatorio costituzionale#Corriere giuridico#Corriere giuridico#Famiglia e diritto#Ilfamiliarista.it	Il Foro Italiano#Wolters Kluwer Italia s.r.l.#Wolters Kluwer Italia s.r.l.#Associazione Italiana dei Costituzionalisti#Wolters Kluwer Italia s.r.l.#Wolters Kluwer Italia s.r.l.#Wolters Kluwer Italia s.r.l.#Giuffrè	altro#WKI#WKI#altro#WKI#WKI#WKI#GFL	EFFICACIA DI SENTENZE ED ATTI STRANIERI#ADOZIONE#FAMIGLIA#MATRIMONIO E RAPPORTI TRA CONIUGI#FILIAZIONE#DIRITTO COMPARATO IN GENERALE#CONCEPIMENTO E NASCITA DELLA PERSONA FISICA#DIRITTO INTERNAZIONALE PRIVATO IN GENERALE#FILIAZIONE NATURALE#SERVIZI ANAGRAFICI E STATO CIVILE#ADOZIONE E AFFIDAMENTO#DIRITTI UMANI#DELIBAZIONE (GIUDIZIO DI) ADOZIONE#DIRITTO IN GENERE FILIAZIONE#DELIBAZIONE (GIUDIZIO DI)#DIRITTO DI FAMIGLIA#SISTEMA ITALIANO DI DIRITTO INTERNAZIONALE PRIVATO#DIRITTO CIVILE IN GENERALE#DELIBAZIONE	"EFFICACIA DI SENTENZE ED ATTI STRANIERI;ADOZIONE#FAMIGLIA;EFFICACIA DI SENTENZE ED ATTI STRANIERI;MATRIMONIO E RAPPORTI TRA CONIUGI;FILIAZIONE;DIRITTO COMPARATO IN GENERALE#CONCEPIMENTO E NASCITA DELLA PERSONA FISICA;DIRITTO INTERNAZIONALE PRIVATO IN GENERALE;FILIAZIONE NATURALE#FILIAZIONE;CONCEPIMENTO E NASCITA DELLA PERSONA FISICA;SERVIZI ANAGRAFICI E STATO CIVILE;DIRITTO INTERNAZIONALE PRIVATO IN GENERALE;EFFICACIA DI SENTENZE ED ATTI STRANIERI;ADOZIONE E AFFIDAMENTO;DIRITTI UMANI#FILIAZIONE Filiazione naturale Procreazione medicalmente assistita In genere DELIBAZIONE (GIUDIZIO DI) ADOZIONE In genere DIRITTO IN GENERE FILIAZIONE Filiazione naturale in genere Inseminazione artificiale Filiazione in genere DELIBAZIONE (GIUDIZIO DI) Sentenza straniera ADOZIONE Adozione, in genere Stato di abbandono DIRITTO DI FAMIGLIA#FILIAZIONE Filiazione naturale Procreazione medicalmente assistita In genere DELIBAZIONE (GIUDIZIO DI) ADOZIONE In genere DIRITTO IN GENERE FILIAZIONE Filiazione naturale in genere Inseminazione artificiale Filiazione in genere DELIBAZIONE (GIUDIZIO DI) Sentenza straniera ADOZIONE Adozione, in genere Stato di abbandono DIRITTO DI FAMIGLIA#CONCEPIMENTO E NASCITA DELLA PERSONA FISICA;EFFICACIA DI SENTENZE ED ATTI STRANIERI;SISTEMA ITALIANO DI DIRITTO INTERNAZIONALE PRIVATO;DIRITTO CIVILE IN GENERALE#""DELIBAZIONE (Giudizio di)"" "		DoGi-WKI_NAS_APP-SAME_AS-DoGi-DEJURE_NAS_APP			1.5
IT:TS:TRB:2017:1985357270	3489	true	true	false		false	Trieste	2017	TRIBUNALE	Pordenone	SENTENZA	CIVILE	2017-03-16			Pres. De Rosa Rel. Iaderosa	A.M. (avv. Pili) - B.D.G. (avv. Cantiello)		sentenza Tribunale Pordenone 16 marzo 2017	sentenza Tribunale Pordenone 16 marzo 2017	http://studiolegale.leggiditalia.it/#id=44MA0002628268,__m=document	"Autenticazione notarile e trascrizione dei trasferimenti immobiliari contenuti nell'accordo di negoziazione assistita ex art. 6 D.L. 132/2014. Analisi critica dei provvedimenti del Trib. Pordenone 16 marzo 2017 e di App. Trieste 30 maggio 2017, Rivista del notariato, Giuffrè, 2017, 5, 1024, nota di BELLOLI ANDREA ALBERTO""#""Sulla trascrizione degli accordi di negoziazione assistita in materia familiare, Riv. La Nuova giurisprudenza civile commentata, Wolters Kluwer Italia s.r.l., 2017, 9, 1167, nota di CARDOSI ALESSANDRO"	  | http://studiolegale.leggiditalia.it/#id=10AR0000184005ART1,__m=document	Rivista del notariato#La Nuova giurisprudenza civile commentata	Giuffrè#Wolters Kluwer Italia s.r.l.	GFL#WKI	DIRITTO PROCESSUALE CIVILE IN GENERALE#TRASCRIZIONE#SEPARAZIONE PERSONALE DEI CONIUGI#NOTAI E NOTARIATO#DIVORZIO	DIRITTO PROCESSUALE CIVILE IN GENERALE;TRASCRIZIONE;SEPARAZIONE PERSONALE DEI CONIUGI;NOTAI E NOTARIATO#DIRITTO PROCESSUALE CIVILE IN GENERALE;SEPARAZIONE PERSONALE DEI CONIUGI;DIVORZIO		DoGi-WKI_NAS_TRIB			1.5
IT:RC:TRB:2017:997665873	7017730	true	true	false		false	Reggio Calabria	2017	TRIBUNALE	Locri	ORDINANZA	CIVILE	2017-10-03			dr.ssa Antonella Stilo Presidente rel. dr. Andrea Amadei Giudice dr.ssa Elisa Vicenzutti Giudice		1311/2017 R.G	ordinanza Tribunale Locri 3 ottobre 2017	Tribunale , Locri , 03/10/2017	https://dejure.it/#/ricerca/giurisprudenza_documento?idDatabank=6&idDocMaster=7017730&idUnitaDoc=0&nVigUnitaDoc=1&isCorrelazioniSearch=true	Inammissibile il reclamo avverso i provvedimenti ex art. 709-ter c.p.c. pronunciati dal G.I., Riv. Ilfamiliarista.it, Giuffrè, 16 FEBBRAIO  2018, nota di SAPI GIULIA	https://dejure.it/#/ricerca/giurisprudenza_documento_giurisprudenza_commentata?idDatabank=198&idDocMaster=7189238&idUnitaDoc=0&nVigUnitaDoc=1&docIdx=12&semantica=0&isPdf=false&isCorrelazioniSearch=false	Ilfamiliarista.it	Giuffrè	GFL		#		DEJURE_COMM_TRIB			1.5
IT:RM:TRB:2016:797204269	2164	true	true	false		false	Roma	2016	TRIBUNALE	Roma	ORDINANZA	CIVILE	2016-11-30		9	Dott. Fausto Basile	Società Italiana degli Autori ed Editori (“SIAE”) , Live Nation 2 S.r.l. (“Live Nation 2”), Seatwave Ltd. (“Seatwave”), Ticketbis Sociedad Limitada (“Ticketbis”) e Viagogo A.G. (“Viagogo”)	RG n. 69119/2016	ordinanza Tribunale Roma sez. IX civ. 30 novembre 2016	ord. Tribunale Roma sez. IX civ. 30 novembre 2016	http://www.molegale.it/wp-content/uploads/2017/01/ordinanza-tribunale-roma-n.-69110-del-2016.pdf	"""Secondary ticketing"" e violazione del diritto patrimoniale d'autore nel caso Coldplay, Riv. Il Diritto d'autore, Giuffrè, 2017, 1, 48, nota di COLTELLACCI VALERIA"	https://dejure.it/#/ricerca/dottrine_documento?idDatabank=99&idDocMaster=6108577&idUnitaDoc=0&nVigUnitaDoc=1&docIdx=17&semantica=0&isPdf=false&isCorrelazioniSearch=false	Il Diritto d'autore	Giuffrè	GFL	TUTELA DEL DIRITTO D'AUTORE	TUTELA DEL DIRITTO D'AUTORE		DoGi-DEJURE_NAS_TRIB			1.5
IT:MI:TRB:2017:822196994	1054	true	true	false		false	Milano	2017	TRIBUNALE	Milano	ORDINANZA	CIVILE	2017-04-18		1	Est. Dott. Martina Flamini	Ricorrenti Contro Fondazione IRCCS Ca' Granda Ospedale Maggiore Policlinico di Milano	RG n. 58158/2014	ordinanza Tribunale Milano sez. I civ. 18 aprile 2017	ord. Tribunale Milano sez. I civ. 18 aprile 2017	http://www.biodiritto.org/index.php/item/download/763_9f86accff4a9e5a2bfdbc704c91e709e	"La diagnosi genetica preimpianto dalla sentenza della Corte costituzionale all'ordinanza del giudice comune. Ed il legislatore? Considerazioni, a prima lettura, sull'ord. Tr. Milano, sez. I civ., depositata il 18 aprile 2017, Riv. BioLaw Journal - Rivista di BioDiritto, Università degli Studi di Trento, 2017, 2, 20, nota di FATTIBENE ROSANNA""#""Diagnosi genetica preimpianto e coppie fertili portatrici di malattie genetiche trasmissibili: il giudice di merito applica la sentenza della Corte cost. n. 96/2015, Riv. Corriere giuridico, Wolters Kluwer Italia s.r.l., 2018, 1, 52, nota di IANNICELLI MARIA ALESSANDRA""#""Diagnosi preimpianto: l'applicazione giurisprudenziale della sentenza n. 96/2015 della Consulta, Riv. Famiglia e diritto, Wolters Kluwer Italia s.r.l., 2017, 6, 541, nota di CARRATO ALDO""#""La selezione preimpianto tra autodeterminazione procreativa e tutela del diritto alla salute della donna, Riv. Responsabilità civile e previdenza, Giuffrè, 2018, 1, 229, nota di CARLINO FRANCESCO""#""Sì alla diagnosi preimpianto per una coppia fertile portatrice di malattia genetica trasmissibile, Riv. Ilfamiliarista.it, Giuffrè, 15 SETTEMBRE 2017, nota di PARISI IDA"	http://studiolegale.leggiditalia.it/#id=10AR0000188547ART1,__m=document | http://studiolegale.leggiditalia.it/#id=10AR0000180798ART1,__m=document | https://dejure.it/#/ricerca/dottrine_documento?idDatabank=99&idDocMaster=7287601&idUnitaDoc=0&nVigUnitaDoc=1&docIdx=7&semantica=0&isPdf=false&isCorrelazioniSearch=false | https://dejure.it/#/ricerca/dottrine_documento?idDatabank=99&idDocMaster=6306870&idUnitaDoc=0&nVigUnitaDoc=1&docIdx=13&semantica=0&isPdf=false&isCorrelazioniSearch=false	BioLaw Journal - Rivista di BioDiritto#Corriere giuridico#Famiglia e diritto#Responsabilità civile e previdenza#Ilfamiliarista.it	Università degli Studi di Trento#Wolters Kluwer Italia s.r.l.#Wolters Kluwer Italia s.r.l.#Giuffrè#Giuffrè	altro#WKI#WKI#GFL#GFL	TEORIA DEI VALORI GIURIDICI#TUTELA DELLA SALUTE#CORTE COSTITUZIONALE#PROCEDIMENTI CAUTELARI#CONCEPIMENTO E NASCITA DELLA PERSONA FISICA#DIRITTI DELLA PERSONALITÀ#FILIAZIONE	"TEORIA DEI VALORI GIURIDICI;TUTELA DELLA SALUTE#TUTELA DELLA SALUTE;CORTE COSTITUZIONALE#TUTELA DELLA SALUTE;CORTE COSTITUZIONALE;PROCEDIMENTI CAUTELARI#CONCEPIMENTO E NASCITA DELLA PERSONA FISICA;DIRITTI DELLA PERSONALITÀ#""FILIAZIONE"" "		DoGi-DEJURE_NAS_TRIB-WKI_NAS_TRIB-SAME_AS-DEJURE_NAS_TRIB			1.5
IT:MI:TRB:2017:1475303186	2121	true	true	false		false	Milano	2017	TRIBUNALE	Milano	DECRETO	CIVILE	2017-10-05		2	dott. Alida Paluchowski Presidente dott. Amina Simonetti Giudice Relatore dott. Irene Lupo Giudice	BANCA MEDIOCREDITO DEL FRIULI VENEZIA GIULIA SPA, PANSAC INTERNATIONAL SRL IN A.S.	n. r.g. 13563/2014	decreto Tribunale Milano sez. II civ. 5 ottobre 2017	decreto Tribunale Milano sez. II civ. 5 ottobre 2017	https://dejure.it/#/ricerca/giurisprudenza_documento?idDatabank=6&idDocMaster=7026962&idUnitaDoc=0&nVigUnitaDoc=1&isCorrelazioniSearch=true	"Crediti da finanziamenti in favore di una ""Newco"" in esecuzione di accordo di ristrutturazione dei debiti omologato: prededucibilità ex art. 182-quater l. fall., Riv. GiustiziaCivile.com, Giuffrè, 2018-03-00, nota di GOMMELLINI ALBERTO""#""La prededucibilità dei finanziamenti alla newco cessionaria dell'azienda, Riv. Ilfallimentarista.it, Giuffrè, 20 FEBBRAIO  2018, nota di TAROLLI REMO, RIONDATO LAURA"	https://dejure.it/#/ricerca/giurisprudenza_documento_giurisprudenza_commentata?idDatabank=198&idDocMaster=7282549&idUnitaDoc=0&nVigUnitaDoc=1&docIdx=10&semantica=0&isPdf=false&isCorrelazioniSearch=false | https://dejure.it/#/ricerca/dottrine_documento?idDatabank=99&idDocMaster=7190562&idUnitaDoc=0&nVigUnitaDoc=1&docIdx=0&semantica=0&isPdf=false&isCorrelazioniSearch=false	GiustiziaCivile.com#Ilfallimentarista.it	Giuffrè#Giuffrè	GFL#GFL	PROCEDURE CONCORSUALI#LIQUIDAZIONE DELL'ATTIVO#FALLIMENTO	"PROCEDURE CONCORSUALI;LIQUIDAZIONE DELL'ATTIVO#""FALLIMENTO"" "		DoGi-DEJURE_COMM_TRIB-SAME_AS-DEJURE_NAS_TRIB			1.6
IT:BS:TRB:2018:1753312051	7529915	true	true	false		false	Brescia	2018	TRIBUNALE	Brescia	DECRETO	CIVILE	2018-07-25	7556	spec. Impresa				decreto Tribunale Brescia sez. spec. Impresa 25 luglio 2018, n. 7556	Tribunale , Brescia , 25/07/2018 , n. 7556	https://dejure.it/#/ricerca/giurisprudenza_documento?idDatabank=6&idDocMaster=7529915&idUnitaDoc=0&nVigUnitaDoc=1&isCorrelazioniSearch=true | http://studiolegale.leggiditalia.it/#id=44MA0002689375+44MA0002689382,__m=document	"Requisiti della criptovaluta, ex art. 2464, comma 2, c.c., ai fini del conferimento nel capitale sociale di una s.r.l., Riv. Ilsocietario.it, Giuffrè, 27 NOVEMBRE  2018, nota di BARTOLINI FABRIZIO""#""L'aumento di capitale nelle S.r.l. con conferimento di criptovalute, Riv. Notariato, Wolters Kluwer Italia s.r.l., 2018, 6, 665, nota di KROGH MARCO"	https://dejure.it/#/ricerca/giurisprudenza_documento_giurisprudenza_commentata?idDatabank=198&idDocMaster=7704627&idUnitaDoc=0&nVigUnitaDoc=1&docIdx=9&semantica=0&isPdf=false&isCorrelazioniSearch=false | http://studiolegale.leggiditalia.it/#id=10AR0000222215ART1,__m=document	Ilsocietario.it#Notariato	Giuffrè#Wolters Kluwer Italia s.r.l.	GFL#WKI	SOCIETÀ DI CAPITALI	#SOCIETÀ DI CAPITALI		DEJURE_COMM_TRIB-SAME_AS-DoGi			1.6
IT:BO:TRB:2015:575538288	821	true	false	false		false	Bologna	2015	TRIBUNALE	Piacenza	SENTENZA	CIVILE	2015-10-28	804			P.V. c. Banca Mediolanum		sentenza Tribunale Piacenza 28 ottobre 2015, n. 804	sentenza Tribunale Piacenza 28 ottobre 2015, n. 804	http://studiolegale.leggiditalia.it/#id=44MA0002533667+44MA0002583426,__m=document	"La responsabilità dell'intermediario per il fatto illecito del promotore, Riv. Corriere giuridico, Wolters Kluwer Italia s.r.l., 2016, 11, 1371, nota di GARREFFA SARA""#""Come l'intermediario abilitato può difendersi allorché gli venga contestato l'illecito del suo promotore finanziario?, Riv. Il Foro padano, Fabrizio Serra Editore, 2016, 1, 103, nota di GHIGLIOTTI LEOPOLDO"	http://studiolegale.leggiditalia.it/#id=10AR0000173405ART1,__m=document	Corriere giuridico#Il Foro padano	Wolters Kluwer Italia s.r.l.#Fabrizio Serra Editore	WKI#altro	INTERMEDIARI FINANZIARI#IMPUTABILITÀ E COLPEVOLEZZA	INTERMEDIARI FINANZIARI#INTERMEDIARI FINANZIARI;IMPUTABILITÀ E COLPEVOLEZZA		DoGi-WKI_NAS_TRIB-SAME_AS-DoGi			1.6
